<?xml version="1.0" encoding="utf-8"?>
<!-- Generator: Adobe Illustrator 24.0.2, SVG Export Plug-In . SVG Version: 6.00 Build 0)  -->
<svg version="1.1" id="Capa_1" xmlns="http://www.w3.org/2000/svg" xmlns:xlink="http://www.w3.org/1999/xlink" x="0px" y="0px"
	 viewBox="0 0 119.97 38.64" style="enable-background:new 0 0 119.97 38.64;" xml:space="preserve">
<g id="logo_redibujado">
	<g>
		<circle style="fill:#D92455;" cx="84.2799" cy="6.0638" r="6.0638"/>
		<path style="fill:#D92455;" d="M48.4643,17.4847c5.2206-1.2751,22.2977-2.3613,34.4441,0.7906
			c1.9666,0.5097,6.7524,1.9045,7.1574,5.0873c0,0,0.6624,2.3509-5.1662,5.1416c-5.8105,2.783-10.6792,4.4359-14.6008,5.5996
			c-3.7482,1.1114-10.6029,2.9576-12.8735,3.3827c-1.92,0.359-5.9619,1.2065-8.0631,1.1509
			c-1.4827-0.0388-0.5796-0.7847,0.4283-1.3702c1.8346-1.0648,6.9802-2.8114,9.6752-3.699
			c2.6937-0.8882,11.2304-3.8853,13.0715-4.5776c2.1969-0.8248,6.3113-2.6446,7.5223-3.4649
			c1.4439-0.9768,3.1272-2.479,1.4633-3.4383c-1.4607-0.8416-2.871-1.0163-6.0163-1.4536
			c-3.1078-0.4328-10.4489-0.7168-12.4905-0.7349c-2.021-0.0181-6.4562-0.1979-7.684-0.2148
			c-0.8565-0.0117-7.072-0.3849-7.9169-0.9316C46.8225,18.3684,46.8522,17.878,48.4643,17.4847z"/>
		<path style="fill:#D92455;" d="M36.7358,22.3016h-3.6072l-3.1517,8.9151h3.4247l0.2588-1.1263h2.4207l0.3196,1.1263h3.4247
			L36.7358,22.3016z M34.1793,28.0048l0.722-3.0599l0.678,3.0599H34.1793z"/>
		<path style="fill:#D92455;" d="M59.4631,22.3016h-3.6085l-3.1505,8.9151h3.4247l0.2588-1.1263h2.4207l0.3196,1.1263h3.4247
			L59.4631,22.3016z M56.9052,28.0048l0.7232-3.0599l0.6767,3.0599H56.9052z"/>
		<polygon style="fill:#D92455;" points="41.9538,31.2167 41.9538,22.3016 45.0344,22.3016 47.7851,26.8908 47.7851,22.3016 
			50.8644,22.3016 50.8644,31.2167 47.7851,31.2167 45.0344,26.6048 45.0344,31.2167 		"/>
		<g>
			<path style="fill:#D92455;" d="M29.6263,33.7765h0.4891c-0.0013,0.0821,0.0155,0.1345,0.0492,0.1579
				c0.0246,0.0155,0.0556,0.0246,0.0944,0.0272c0.0375,0.0026,0.1591,0.0052,0.3623,0.0065c0.2135,0,0.3416-0.0013,0.3843-0.0039
				c0.0427-0.0019,0.0763-0.0077,0.1022-0.0187c0.0362-0.0149,0.0556-0.0569,0.0556-0.1249c0-0.0492-0.0129-0.0821-0.0401-0.0983
				c-0.0259-0.0168-0.0789-0.0259-0.1604-0.0278c-0.0621,0-0.1941-0.0045-0.3946-0.0142c-0.2057-0.0097-0.3403-0.0155-0.4024-0.0175
				c-0.1216-0.0039-0.2148-0.0155-0.2795-0.0343s-0.1152-0.0498-0.1514-0.0925c-0.0634-0.0711-0.0944-0.1902-0.0944-0.3558
				c0-0.1869,0.0362-0.3189,0.1074-0.3959c0.0543-0.0595,0.1371-0.0977,0.2497-0.1139c0.1126-0.0168,0.3403-0.0252,0.6844-0.0252
				c0.2432,0,0.414,0.0071,0.5124,0.0207c0.1527,0.0213,0.2562,0.0634,0.3131,0.1268c0.0556,0.0634,0.0841,0.1701,0.0841,0.3202
				c0,0.0142,0,0.0401-0.0013,0.0776h-0.4878c-0.0013-0.0466-0.0052-0.0776-0.0116-0.0945
				c-0.0065-0.0168-0.0181-0.0311-0.0362-0.0414c-0.0207-0.0129-0.0595-0.0207-0.1139-0.0246
				c-0.0556-0.0039-0.1721-0.0052-0.3493-0.0052c-0.2148,0-0.3442,0.0065-0.392,0.0194c-0.0466,0.0136-0.0699,0.0505-0.0699,0.1113
				c0,0.0582,0.0233,0.0938,0.0699,0.1067c0.0388,0.0103,0.2174,0.0201,0.5343,0.0304c0.2678,0.0078,0.4464,0.0168,0.5369,0.0285
				c0.0893,0.0103,0.1617,0.0311,0.2148,0.0621c0.0608,0.0362,0.1035,0.0867,0.1281,0.1501
				c0.0259,0.0634,0.0375,0.1539,0.0375,0.273c0,0.1559-0.0207,0.2717-0.0621,0.348c-0.0323,0.0556-0.0763,0.097-0.132,0.1242
				c-0.0556,0.0278-0.1346,0.0466-0.2368,0.0556c-0.1087,0.0103-0.3118,0.0149-0.6094,0.0149c-0.2497,0-0.4334-0.0065-0.5512-0.0194
				c-0.119-0.0123-0.2083-0.0356-0.2678-0.0692c-0.0621-0.0349-0.1061-0.0821-0.1294-0.1404s-0.0362-0.1469-0.0362-0.2652V33.7765
				L29.6263,33.7765L29.6263,33.7765z"/>
			<path style="fill:#D92455;" d="M32.9721,32.6703h1.8321v0.3894H33.469v0.2381h1.2679v0.3635H33.469v0.2659h1.3456v0.3972h-1.8424
				V32.6703L32.9721,32.6703L32.9721,32.6703z"/>
			<path style="fill:#D92455;" d="M37.1227,33.3871h1.1528c0.0013,0.0265,0.0026,0.0414,0.0026,0.0447
				c0,0.2335-0.0065,0.4089-0.0181,0.5272c-0.0194,0.1902-0.1281,0.306-0.3247,0.3467c-0.0854,0.0168-0.1824,0.0285-0.2924,0.0336
				c-0.1087,0.0065-0.2756,0.0091-0.5007,0.0091c-0.2846,0-0.4852-0.0071-0.6029-0.0227c-0.1177-0.0149-0.2122-0.0459-0.2808-0.0925
				c-0.0466-0.0311-0.0828-0.0711-0.1074-0.1203c-0.0246-0.0498-0.0427-0.1151-0.0518-0.1954
				c-0.0103-0.0751-0.0155-0.2238-0.0155-0.4464c0-0.1507,0.0052-0.2646,0.0129-0.3416c0.0078-0.0763,0.0233-0.1449,0.0466-0.2057
				c0.0479-0.1281,0.1501-0.2057,0.304-0.2329c0.1708-0.0297,0.4308-0.0447,0.7828-0.0447c0.2083,0,0.3726,0.0052,0.4942,0.0155
				c0.1203,0.011,0.2212,0.0278,0.2989,0.0524c0.1268,0.0395,0.2031,0.1249,0.2303,0.2568
				c0.0129,0.0653,0.0194,0.1559,0.0207,0.2697h-0.5046c0-0.0466-0.0039-0.0783-0.0078-0.0945
				c-0.0052-0.0168-0.0155-0.0311-0.0311-0.0421c-0.0285-0.0201-0.0867-0.033-0.176-0.0375
				c-0.0854-0.0045-0.2083-0.0071-0.3687-0.0071c-0.1747,0-0.2989,0.0039-0.3739,0.0117c-0.075,0.0078-0.1255,0.0233-0.154,0.0453
				c-0.0272,0.022-0.0453,0.0595-0.0556,0.1106c-0.0091,0.0511-0.0142,0.1391-0.0142,0.2633c0,0.1397,0.0052,0.2374,0.0142,0.2924
				c0.0104,0.0556,0.0285,0.0945,0.0556,0.1177c0.0285,0.0213,0.0634,0.0349,0.1074,0.0388
				c0.044,0.0052,0.1837,0.0084,0.4179,0.0117c0.229-0.0013,0.3687-0.0039,0.4179-0.0065c0.0492-0.0026,0.0893-0.0103,0.119-0.0227
				c0.0246-0.0103,0.0414-0.0278,0.0518-0.0511c0.0091-0.0239,0.0142-0.0595,0.0142-0.1074c0-0.0077,0-0.0227-0.0013-0.0459h-0.6624
				V33.3871L37.1227,33.3871z"/>
			<path style="fill:#D92455;" d="M39.6146,32.6703h0.5046v0.7601c0.0026,0.174,0.0078,0.2846,0.0181,0.3306
				c0.0129,0.0647,0.0543,0.1074,0.1255,0.1275c0.0699,0.0201,0.2135,0.0304,0.4283,0.0304c0.1747,0,0.295-0.0052,0.3623-0.0155
				s0.1164-0.0297,0.1436-0.0595c0.0194-0.0213,0.0323-0.0466,0.0401-0.0763c0.0078-0.0304,0.0129-0.0815,0.0168-0.1539
				c0.0039-0.0751,0.0065-0.1359,0.0065-0.1837v-0.7595h0.5046v0.7595c-0.0065,0.2646-0.0142,0.4376-0.0259,0.5188
				c-0.0207,0.1391-0.0867,0.2407-0.1992,0.3053c-0.0634,0.0375-0.154,0.0621-0.2704,0.0751
				c-0.1152,0.0129-0.3066,0.0194-0.5719,0.0194c-0.2005,0-0.3545-0.0033-0.4619-0.0103c-0.1087-0.0078-0.2031-0.0207-0.2833-0.0388
				c-0.176-0.0427-0.2795-0.1488-0.3092-0.3202c-0.0116-0.0653-0.0194-0.1249-0.022-0.1779
				c-0.0026-0.0537-0.0052-0.1773-0.0065-0.3713V32.6703L39.6146,32.6703z"/>
			<path style="fill:#D92455;" d="M43.1351,34.3245v-1.6542h1.2175c0.2859,0.0013,0.458,0.0039,0.5136,0.0091
				c0.0569,0.0052,0.1113,0.0246,0.1643,0.0569c0.0634,0.0375,0.1061,0.0899,0.1294,0.1565s0.0349,0.1714,0.0349,0.3144
				c0,0.1203-0.0078,0.2089-0.022,0.2652c-0.0155,0.0569-0.0427,0.1022-0.0841,0.1359c-0.0453,0.0362-0.1113,0.0615-0.2018,0.0751
				c0.1061,0.0084,0.1824,0.0388,0.2277,0.0912c0.0272,0.0317,0.044,0.0699,0.0518,0.1145
				c0.0065,0.0447,0.0103,0.1385,0.0103,0.2821v0.1539h-0.4968v-0.0893c0-0.0919-0.0039-0.1579-0.0103-0.1967
				c-0.0065-0.0388-0.0194-0.0692-0.0375-0.0906c-0.0194-0.0194-0.0453-0.0311-0.0776-0.0362
				c-0.0323-0.0052-0.1009-0.0077-0.2057-0.0077h-0.709v0.4205C43.6397,34.3245,43.1351,34.3245,43.1351,34.3245z M43.6397,33.4906
				h0.7077c0.1242-0.0026,0.198-0.0039,0.2212-0.0065c0.0246-0.0019,0.0453-0.0077,0.0621-0.0187
				c0.022-0.0136,0.0362-0.0343,0.0453-0.0615c0.0091-0.0272,0.0142-0.0673,0.0142-0.1229c0-0.0537-0.0052-0.0945-0.0155-0.121
				c-0.0103-0.0265-0.0285-0.0459-0.053-0.0582c-0.0181-0.0084-0.0388-0.0129-0.0634-0.0149
				c-0.0246-0.0013-0.0957-0.0026-0.2109-0.0032h-0.7077V33.4906L43.6397,33.4906z"/>
			<path style="fill:#D92455;" d="M47.6246,32.6464c0.3571,0,0.6029,0.0084,0.7375,0.0265
				c0.1928,0.0259,0.3105,0.1177,0.3545,0.2756c0.0298,0.1074,0.0453,0.2911,0.0453,0.5486c0,0.2587-0.0155,0.4418-0.0453,0.5499
				c-0.044,0.1579-0.1617,0.2497-0.3545,0.2756c-0.1346,0.0175-0.3791,0.0259-0.7323,0.0259c-0.3597,0-0.6081-0.0084-0.7414-0.0259
				c-0.1928-0.0259-0.3118-0.1177-0.3558-0.2756c-0.0298-0.108-0.044-0.295-0.044-0.5596c0-0.2517,0.0142-0.4315,0.044-0.5389
				c0.044-0.1579,0.163-0.2497,0.3558-0.2756C47.0217,32.6548,47.2676,32.6464,47.6246,32.6464z M47.6259,33.0766
				c-0.2665,0-0.4283,0.0065-0.4826,0.0207c-0.0621,0.0155-0.1022,0.0517-0.1216,0.1087c-0.0194,0.0556-0.0298,0.1669-0.0298,0.3345
				c0,0.1016,0.0052,0.174,0.0168,0.2193c0.0194,0.0841,0.0802,0.132,0.1824,0.1443c0.075,0.0097,0.2212,0.0149,0.4373,0.0149
				c0.2031,0,0.3377-0.0039,0.405-0.0117c0.0673-0.0065,0.1164-0.0233,0.1488-0.0479c0.0298-0.0233,0.0492-0.0563,0.0595-0.1003
				c0.0103-0.044,0.0155-0.1158,0.0155-0.2167c0-0.1184-0.0039-0.2057-0.0116-0.2613s-0.0233-0.0977-0.044-0.1258
				c-0.0259-0.0356-0.0712-0.0576-0.132-0.066C48.0089,33.0809,47.8601,33.0766,47.6259,33.0766z"/>
			<path style="fill:#D92455;" d="M50.0493,33.7765h0.4878c-0.0013,0.0821,0.0155,0.1345,0.0492,0.1579
				c0.0246,0.0155,0.0556,0.0246,0.0944,0.0272s0.1591,0.0052,0.3636,0.0065c0.2122,0,0.3403-0.0013,0.383-0.0039
				c0.044-0.0019,0.0776-0.0077,0.1022-0.0187c0.0375-0.0149,0.0556-0.0569,0.0556-0.1249c0-0.0492-0.0129-0.0821-0.0388-0.0983
				c-0.0272-0.0168-0.0802-0.0259-0.1604-0.0278c-0.0621,0-0.1941-0.0045-0.3959-0.0142c-0.2057-0.0097-0.3403-0.0155-0.4024-0.0175
				c-0.1203-0.0039-0.2135-0.0155-0.2795-0.0343c-0.0647-0.0187-0.1152-0.0498-0.1514-0.0925
				c-0.0621-0.0711-0.0932-0.1902-0.0932-0.3558c0-0.1869,0.0349-0.3189,0.1061-0.3959c0.0543-0.0595,0.1371-0.0977,0.2497-0.1139
				c0.1126-0.0168,0.3403-0.0252,0.6844-0.0252c0.2432,0,0.414,0.0071,0.5136,0.0207c0.1514,0.0213,0.2549,0.0634,0.3118,0.1268
				c0.0569,0.0634,0.0854,0.1701,0.0854,0.3202c0,0.0142-0.0013,0.0401-0.0013,0.0776h-0.4891
				c-0.0013-0.0466-0.0052-0.0776-0.0116-0.0945c-0.0052-0.0168-0.0181-0.0311-0.0349-0.0414
				c-0.022-0.0129-0.0608-0.0207-0.1152-0.0246c-0.0556-0.0039-0.1721-0.0052-0.3493-0.0052c-0.2135,0-0.3442,0.0065-0.3907,0.0194
				c-0.0479,0.0136-0.0712,0.0505-0.0712,0.1113c0,0.0582,0.0233,0.0938,0.0712,0.1067c0.0388,0.0103,0.2161,0.0201,0.5343,0.0304
				c0.2665,0.0078,0.4451,0.0168,0.5356,0.0285c0.0906,0.0103,0.1617,0.0311,0.2148,0.0621
				c0.0608,0.0362,0.1035,0.0867,0.1294,0.1501c0.0246,0.0634,0.0375,0.1539,0.0375,0.273c0,0.1559-0.022,0.2717-0.0634,0.348
				c-0.0311,0.0556-0.075,0.097-0.132,0.1242c-0.0556,0.0278-0.1346,0.0466-0.2368,0.0556
				c-0.1087,0.0103-0.3118,0.0149-0.6094,0.0149c-0.2484,0-0.4321-0.0065-0.5512-0.0194c-0.119-0.0123-0.2083-0.0356-0.2678-0.0692
				c-0.0621-0.0349-0.1048-0.0821-0.1294-0.1404c-0.0233-0.0582-0.0349-0.1469-0.0349-0.2652V33.7765L50.0493,33.7765
				L50.0493,33.7765z"/>
		</g>
	</g>
</g>
</svg>
