<?xml version="1.0" encoding="utf-8"?>
<!-- Generator: Adobe Illustrator 24.0.2, SVG Export Plug-In . SVG Version: 6.00 Build 0)  -->
<svg version="1.1" id="Capa_1" xmlns="http://www.w3.org/2000/svg" xmlns:xlink="http://www.w3.org/1999/xlink" x="0px" y="0px"
	 viewBox="0 0 119.9709 36.6386" style="enable-background:new 0 0 119.9709 36.6386;" xml:space="preserve">
<g>
	<path style="fill:#BF0E2D;" d="M0.0152,12.5224c0.1035-0.3594,0.3789-0.5879,0.6543-0.8164
		c2.1689-1.7637,4.6133-2.2861,7.333-1.4365c2.6851,0.8486,4.3721,2.6777,4.9229,5.29c0.5161,2.417-0.1724,4.54-1.9624,6.3359
		c-0.3442,0.3594-0.7573,0.458-1.2393,0.2939c-0.4819-0.1631-0.7231-0.4902-0.792-0.9473
		c-0.0342-0.3262,0.0688-0.6523,0.3442-0.8809c0.7573-0.752,1.2393-1.6016,1.4116-2.6133c0.4819-2.4492-1.3081-4.9971-3.8901-5.4863
		c-1.79-0.3594-3.374,0.0322-4.6821,1.2402c-0.7231,0.6855-1.8936,0.3271-2.0654-0.4893c0-0.0322-0.0347-0.0322-0.0347-0.0654
		C0.0152,12.7832,0.0152,12.6533,0.0152,12.5224z"/>
	<path style="fill:#6E6158;" d="M103.6031,15.5927c-0.0684,0.9463-0.207,1.8613-0.585,2.7432
		c-0.6201,1.3711-1.6523,2.3516-3.0986,2.874c-1.5146,0.5557-3.0635,0.6201-4.6133,0.1963
		c-2.2373-0.6211-3.5459-2.123-4.0273-4.2793c-0.3447-1.5674-0.1719-3.1025,0.6543-4.5068
		c0.9287-1.6328,2.4443-2.5479,4.3721-2.8408c1.2393-0.1963,2.4443-0.0977,3.6143,0.3262c1.8936,0.7188,2.9951,2.0576,3.4424,3.8867
		C103.4995,14.5146,103.5348,15.0703,103.6031,15.5927z M100.4362,15.6582c0-0.915-0.207-1.7314-0.585-2.417
		c-0.6885-1.1758-1.9277-1.7314-3.2705-1.4043c-0.9297,0.2285-1.5498,0.8486-1.9277,1.665
		c-0.4131,0.8828-0.5166,1.7969-0.4131,2.7441c0.0684,0.7832,0.2754,1.502,0.791,2.1553c0.7236,0.9473,1.6875,1.3057,2.8926,1.1104
		c0.9639-0.1641,1.6182-0.752,2.0313-1.5684C100.3326,17.2256,100.4362,16.4414,100.4362,15.6582z"/>
	<path style="fill:#6E6158;" d="M80.9165,15.5927c-0.0352,1.0127-0.207,1.9912-0.6543,2.9063
		c-0.8262,1.6338-2.2031,2.6123-4.0283,2.9717c-1.3418,0.2617-2.6504,0.2617-3.959-0.1953
		c-2.0654-0.7188-3.2354-2.1563-3.6484-4.1484c-0.3447-1.5342-0.1729-3.0039,0.585-4.4082
		c0.9297-1.6982,2.4443-2.6455,4.4063-2.9395c1.2393-0.1953,2.4443-0.0977,3.6152,0.3262c1.9619,0.752,3.0977,2.1563,3.5107,4.083
		C80.8473,14.6455,80.8824,15.1347,80.9165,15.5927z M77.7838,15.6582c0-0.9805-0.2412-1.8613-0.6885-2.5479
		c-0.6543-1.0449-1.7559-1.502-2.9951-1.2734c-0.9639,0.1631-1.6182,0.751-2.0654,1.5674c-0.3789,0.7188-0.5166,1.502-0.5166,2.3184
		c0,0.8828,0.1719,1.7314,0.6885,2.5156c0.6885,1.0449,1.79,1.502,3.0645,1.2402c0.9287-0.1621,1.5488-0.7178,1.9619-1.502
		C77.6461,17.2578,77.7838,16.4746,77.7838,15.6582z"/>
	<path style="fill:#6E6158;" d="M35.0265,21.4707c0-3.8535,0-7.6738,0-11.5283c2.6509,0,5.3018,0,7.9526,0
		c0,0.7188,0,1.4043,0,2.123c-1.7217,0-3.4429,0-5.1987,0c0,0.8164,0,1.6006,0,2.3838c1.6182,0,3.2363,0,4.8887,0
		c0,0.7188,0,1.4043,0,2.123c-1.6182,0-3.2705,0-4.8887,0c0,0.9141,0,1.8291,0,2.7441c1.8247,0,3.6494,0,5.4741,0
		c0,0.7178,0,1.4365,0,2.123C40.5,21.4707,37.7462,21.4707,35.0265,21.4707z"/>
	<path style="fill:#6E6158;" d="M61.0182,17.3554c0,1.3721,0,2.7441,0,4.1152c-0.9639,0-1.9277,0-2.9258,0
		c0-0.0645,0-0.1309,0-0.1953c0-3.6914,0-7.3477,0-11.0391c0-0.1631,0.0342-0.2285,0.2061-0.2285
		c1.4111-0.1953,2.8232-0.2285,4.2686-0.1953c0.9297,0.0322,1.8252,0.1309,2.6855,0.4893c1.5488,0.6201,2.375,1.96,2.1689,3.5273
		c-0.1035,0.8818-0.3789,1.665-1.0674,2.2529c-0.6543,0.5879-1.4805,0.915-2.375,1.1113c-0.9297,0.1953-1.8936,0.2285-2.8232,0.1621
		C61.1216,17.3554,61.0874,17.3554,61.0182,17.3554z M61.0182,13.6006c0,0.5225,0,1.0127,0,1.5342
		c0,0.1309,0.0342,0.1963,0.1719,0.1963c0.2754,0,0.5166,0.0322,0.792,0.0322c0.585,0,1.1357-0.0645,1.6182-0.3594
		c0.7227-0.3906,0.9639-1.0117,0.8604-1.7637c-0.1025-0.7178-0.5508-1.1426-1.2734-1.3057
		c-0.6885-0.1963-1.377-0.1309-2.0996-0.0654c-0.1377,0-0.1377,0.0977-0.1377,0.1631
		C61.0182,12.5547,61.0182,13.0781,61.0182,13.6006z"/>
	<path style="fill:#6E6158;" d="M113.0708,10.334c-0.207,0.6865-0.4131,1.3721-0.6543,2.0586
		c-0.4131-0.1309-0.8262-0.2617-1.2051-0.3594c-0.7578-0.1641-1.5498-0.2617-2.3066-0.0664
		c-0.207,0.0664-0.4473,0.1641-0.6201,0.2949c-0.5156,0.3594-0.5508,1.0449-0.0342,1.4043c0.2412,0.1953,0.5166,0.3594,0.8262,0.457
		c0.5508,0.2285,1.1357,0.3916,1.7217,0.6523c0.4814,0.2285,0.998,0.457,1.4463,0.7188c1.9619,1.2412,1.7549,3.9844-0.0352,5.1602
		c-0.7227,0.457-1.5146,0.7188-2.3408,0.8496c-1.584,0.2285-3.1328,0.0654-4.6133-0.457c-0.1377-0.0332-0.2754-0.0977-0.4131-0.1641
		c0.207-0.7188,0.3789-1.4043,0.585-2.123c0.0693,0.0332,0.1035,0.0332,0.1387,0.0664c1.0322,0.4238,2.0996,0.6523,3.2354,0.6523
		c0.3789,0,0.7578-0.0645,1.1367-0.2285c0.9287-0.3916,1.0322-1.4043,0.2061-1.959c-0.4131-0.2617-0.8955-0.457-1.377-0.6211
		c-0.6543-0.2285-1.3428-0.457-1.9277-0.8164c-0.4824-0.293-0.9297-0.6201-1.2744-1.0771
		c-0.8945-1.1758-0.6885-2.8408,0.4824-3.8535c0.6885-0.6201,1.5488-0.9473,2.4443-1.1104
		c1.5146-0.2285,2.9951-0.1309,4.4404,0.3594C112.898,10.2695,112.9674,10.3017,113.0708,10.334z"/>
	<path style="fill:#6E6158;" d="M87.4234,21.4707c-0.9639,0-1.9287,0-2.8926,0c0-3.1348,0-6.2373,0-9.373
		c-1.1699,0-2.3066,0-3.4424,0c0-0.75,0-1.4688,0-2.1875c3.2705,0,6.541,0,9.8115,0c0,0.7188,0,1.4365,0,2.1875
		c-1.1367,0-2.3066,0-3.4775,0C87.4234,15.2334,87.4234,18.3359,87.4234,21.4707z"/>
	<path style="fill:#BF0E2D;" d="M13.338,11.0859C9.7233,11.0527,6.6251,8.6035,6.0055,5.207C5.9367,4.75,5.8678,4.2929,5.902,3.8672
		c0.0347-0.5879,0.5854-0.9785,1.1709-0.9785c0.6196,0,1.1016,0.457,1.1704,1.0449c0.0688,0.457,0.0688,0.9473,0.2065,1.4043
		c0.6191,2.1553,2.7197,3.5596,5.1294,3.4941c2.2378-0.0654,4.2344-1.666,4.7163-3.7559c0.1035-0.3916,0.1035-0.7832,0.1377-1.1758
		c0.0347-0.457,0.3789-0.8164,0.8608-0.9473s0.9985,0.0332,1.2739,0.3926c0.1377,0.1953,0.2061,0.4238,0.2061,0.6523
		c0.0347,3.4951-2.6851,6.5-6.2998,7.0215C14.0957,11.0205,13.7169,11.0527,13.338,11.0859z"/>
	<path style="fill:#BF0E2D;" d="M21.3941,9.8769c1.9619,0.0332,3.6831,0.6855,5.1294,1.959
		c0.5161,0.458,0.5508,1.1436,0.0688,1.6016c-0.4819,0.457-1.2051,0.457-1.687,0c-2.8921-2.5801-7.5737-1.2744-8.4688,2.416
		c-0.4131,1.7305,0.0688,3.2656,1.377,4.54c0.3442,0.3262,0.4478,0.6855,0.3101,1.1104c-0.1377,0.4238-0.4478,0.7188-0.895,0.8164
		c-0.3789,0.0645-0.7231-0.0332-0.9985-0.2939c-1.3081-1.2412-2.0654-2.7109-2.2378-4.4746
		c-0.3101-3.2002,1.687-6.1729,4.854-7.2832C19.6725,10.0078,20.5332,9.8447,21.3941,9.8769z"/>
	<path style="fill:#6E6158;" d="M44.9068,9.9423c0.9985,0,1.9624,0,2.9951,0c0,3.1357,0,6.2383,0,9.373c1.7212,0,3.3735,0,5.0952,0
		c0,0.751,0,1.4697,0,2.1885c-2.6855,0-5.3706,0-8.0557,0C44.9068,17.6504,44.9068,13.7968,44.9068,9.9423z"/>
	<path style="fill:#6E6158;" d="M115.3766,9.8447c0.9639,0,1.8936,0,2.8574,0c0,3.8857,0,7.7402,0,11.626
		c-0.9639,0-1.8936,0-2.8574,0C115.3766,17.6172,115.3766,13.7304,115.3766,9.8447z"/>
	<path style="fill:#BF0E2D;" d="M24.9742,16.7031c0,1.8613-1.5835,3.3965-3.5459,3.3965c-1.9966,0-3.5801-1.502-3.5801-3.3965
		c0-1.8613,1.5835-3.3965,3.5801-3.3965C23.3561,13.3066,24.9742,14.8086,24.9742,16.7031z M21.3941,18.3027
		c0.9292,0,1.6865-0.7178,1.6865-1.5996c0-0.8818-0.7568-1.6006-1.6865-1.6006c-0.9302,0-1.687,0.7188-1.687,1.6338
		C19.7066,17.584,20.4645,18.3027,21.3941,18.3027z"/>
	<path style="fill:#BF0E2D;" d="M9.5855,4.1621c0-1.8945,1.6182-3.3965,3.6147-3.3965c1.9624,0,3.5459,1.5352,3.5459,3.3965
		c0,1.8945-1.6182,3.3965-3.5801,3.3965C11.1696,7.5254,9.5513,6.0234,9.5855,4.1621z M13.1661,2.5615
		c-0.9297,0-1.687,0.7188-1.687,1.6006c0,0.8818,0.7573,1.5996,1.687,1.5996c0.9292,0,1.687-0.7178,1.687-1.5996
		S14.0957,2.5615,13.1661,2.5615z"/>
	<path style="fill:#BF0E2D;" d="M2.2876,16.9638c0-1.8613,1.5835-3.3965,3.5459-3.3965c1.9966,0,3.5801,1.5029,3.6147,3.3965
		c0,1.8945-1.5835,3.3975-3.5459,3.3975C3.9054,20.3613,2.3218,18.8584,2.2876,16.9638z M5.8678,15.3632
		c-0.9292,0-1.687,0.7188-1.687,1.6016c0,0.8809,0.7573,1.5996,1.687,1.5996s1.687-0.7188,1.687-1.5996
		C7.5548,16.082,6.7975,15.3632,5.8678,15.3632z"/>
	<path style="fill:#6E6158;" d="M91.0718,33.7509c0.1729-0.8486,0.3447-1.6982,0.4824-2.5146
		c0.0342-0.2617,0.0684-0.5557,0.0684-0.8164c-0.0342-0.4248-0.3779-0.6211-0.791-0.457c-0.207,0.0977-0.4131,0.2285-0.5508,0.4238
		c-0.3447,0.3926-0.5166,0.8828-0.5859,1.3721c-0.1377,0.6533-0.2402,1.3389-0.3779,1.9922c-0.3789,0-0.7578,0-1.1367,0
		c0.2754-1.5352,0.5859-3.0703,0.8613-4.6055c0.3096,0,0.6543,0,0.998,0c-0.0342,0.2617-0.0693,0.4902-0.1035,0.7842
		c0.1035-0.0977,0.1719-0.1963,0.2412-0.2617c0.4473-0.457,0.9639-0.6855,1.6182-0.6201c0.5166,0.0322,0.8604,0.3271,0.9639,0.7842
		c0,0.0322,0,0.0645,0.0342,0.1299c0.1035-0.0977,0.1729-0.1963,0.2412-0.2939c0.3789-0.3916,0.8262-0.5879,1.3428-0.6201
		c0.792-0.0322,1.3076,0.3916,1.3076,1.1436c0,0.457-0.1025,0.9146-0.1719,1.3711c-0.1377,0.6855-0.2754,1.3711-0.4131,2.0576
		c-0.0342,0.0981-0.0684,0.1299-0.1719,0.1299c-0.3096,0-0.6543,0-0.998,0c0.0684-0.4233,0.1719-0.8481,0.2402-1.2729
		c0.1035-0.5229,0.207-1.0449,0.3105-1.5679c0.0342-0.1309,0.0342-0.2935,0.0342-0.4243c-0.0342-0.457-0.4131-0.6855-0.8604-0.4902
		c-0.207,0.0986-0.3789,0.2285-0.5166,0.3926c-0.3447,0.3916-0.4824,0.8496-0.585,1.3389c-0.1377,0.6533-0.2412,1.3066-0.3789,1.96
		c0,0.0645-0.0693,0.1309-0.1377,0.1309C91.7954,33.7509,91.4508,33.7509,91.0718,33.7509z"/>
	<path style="fill:#6E6158;" d="M112.7261,33.7509c-0.3438,0-0.6885,0-1.0332,0c0.0352-0.2607,0.0693-0.5225,0.1035-0.8164
		c-0.1035,0.1299-0.1719,0.1963-0.2412,0.2939c-0.4473,0.4902-1.0322,0.7188-1.6865,0.6201
		c-0.6201-0.0977-1.0674-0.5557-1.2051-1.2412c-0.2061-1.1758,0.3789-2.7432,1.8242-3.3633
		c0.6201-0.2617,1.2402-0.3271,1.9287-0.0977c0.1377-0.7188,0.2754-1.4375,0.4473-2.123c0.3789,0,0.7568,0,1.1709,0
		C113.5865,29.2441,113.0016,31.4648,112.7261,33.7509z M109.7994,32.0195c0.0352,0.0986,0.0352,0.3271,0.1035,0.4902
		c0.1377,0.3594,0.4482,0.5225,0.8262,0.4248c0.1729-0.0654,0.3789-0.1631,0.5166-0.2607c0.3096-0.2285,0.4824-0.5557,0.585-0.915
		c0.1377-0.5225,0.207-1.0127,0.3447-1.5352c0.0342-0.1631-0.0352-0.1963-0.1377-0.2607c-0.5508-0.1963-1.0332-0.0664-1.4463,0.2607
		C110.0406,30.6816,109.8345,31.2685,109.7994,32.0195z"/>
	<path style="fill:#6E6158;" d="M79.7115,33.7509c0.0342-0.0986,0.0693-0.1309,0.1035-0.1963
		c1.0674-2.0244,2.1348-4.0488,3.2012-6.0742c0.0693-0.1309,0.1377-0.1641,0.2754-0.1641c0.4131,0,0.8262,0,1.2744,0
		c0.2754,2.1563,0.5508,4.2793,0.8604,6.4346c-0.4131,0-0.792,0-1.2051,0c-0.0342-0.2939-0.0684-0.6201-0.1025-0.9473
		c-0.0352-0.2617-0.0693-0.4902-0.0693-0.751c0-0.0977-0.0693-0.1309-0.1377-0.1309c-0.6191,0-1.2393,0-1.8594,0
		c-0.0684,0-0.1377,0.0654-0.1719,0.1309c-0.2754,0.5225-0.5166,1.0449-0.792,1.5674c-0.0684,0.0986-0.1025,0.1309-0.2402,0.1309
		C80.4342,33.7509,80.0903,33.7509,79.7115,33.7509z M83.6021,28.2968c-0.4482,0.9141-0.8955,1.8291-1.3428,2.7754
		c0.5508,0,1.1016,0,1.6523,0C83.8081,30.1259,83.7047,29.2109,83.6021,28.2968z"/>
	<path style="fill:#6E6158;" d="M107.4244,33.7509c-0.3789,0-0.7227,0-1.1016,0c0.0342-0.3271,0.0693-0.6533,0.0693-1.0459
		c-0.1035,0.1309-0.1729,0.2617-0.2754,0.3926c-0.3105,0.4238-0.7236,0.6855-1.3086,0.751
		c-0.8955,0.0986-1.5488-0.457-1.6182-1.3066c-0.1719-1.665,0.998-3.5264,3.3398-3.5596c0.3438,0,0.7227,0.0332,1.0674,0.0977
		c0.1719,0.0332,0.3096,0.0664,0.4814,0.0977C107.8374,30.7138,107.3561,32.1836,107.4244,33.7509z M106.8042,29.9297
		c-0.5156-0.1309-0.9639-0.0654-1.3418,0.1963c-0.792,0.5557-1.1367,1.3057-1.0332,2.2207c0.0693,0.5557,0.585,0.7842,1.1016,0.4893
		c0.1719-0.1299,0.3447-0.293,0.4824-0.457c0.1377-0.1953,0.2754-0.3916,0.3438-0.6201
		C106.5299,31.1709,106.6675,30.5507,106.8042,29.9297z"/>
	<path style="fill:#6E6158;" d="M119.0602,31.1709c-0.0342,0.7842-0.3779,1.6328-1.2393,2.2207
		c-0.6191,0.4248-1.3076,0.5557-2.0654,0.4248c-0.8262-0.1309-1.4111-0.752-1.4805-1.6006
		c-0.1035-1.1104,0.2754-2.0576,1.2051-2.7432c0.6201-0.457,1.3428-0.5879,2.1006-0.4248
		C118.4752,29.2109,119.0602,29.9629,119.0602,31.1709z M117.855,30.9746c0-0.0322,0-0.0977,0-0.1309
		c-0.0342-0.5215-0.3096-0.8809-0.7568-0.9473c-0.3447-0.0645-0.6543,0.0332-0.8955,0.2949
		c-0.585,0.5879-0.8262,1.3066-0.6885,2.123c0.1377,0.7178,0.8955,0.9785,1.5146,0.5215c0.1729-0.1309,0.3105-0.293,0.4131-0.457
		C117.7174,31.955,117.8208,31.4648,117.855,30.9746z"/>
	<path style="fill:#6E6158;" d="M62.567,4.1943c0-1.502,1.2744-2.71,2.8574-2.71c1.584,0,2.8926,1.208,2.8926,2.71
		c0,1.5029-1.2744,2.7109-2.8926,2.7109C63.8413,6.9052,62.567,5.6972,62.567,4.1943z M65.4244,2.0058
		c-1.2393,0-2.2715,0.9805-2.2715,2.1563s1.0322,2.1553,2.2373,2.1553c1.2393,0,2.2725-0.9795,2.2725-2.1553
		C67.6968,2.9863,66.6987,2.0058,65.4244,2.0058z"/>
	<path style="fill:#6E6158;" d="M47.9362,4.7168c0-0.1953,0-0.3594,0-0.5547c0.7573,0,1.5146,0,2.2725,0
		c0.0342,0.5547-0.0347,1.1104-0.3789,1.5996c-0.8262,1.209-2.6851,1.4707-3.959,0.5557c-0.9985-0.7178-1.377-1.9268-0.9639-3.0049
		c0.3784-1.1094,1.4805-1.8613,2.7197-1.8613c0.9639,0,1.79,0.4248,2.3408,1.1426c-0.1377,0.1309-0.2754,0.2617-0.4473,0.3926
		c-0.1035-0.1309-0.2065-0.2285-0.3101-0.3594c-0.6543-0.6211-1.4463-0.7842-2.3066-0.4902
		c-0.895,0.2939-1.4116,0.9473-1.5146,1.8291C45.251,5.1739,46.146,6.2188,47.42,6.3497c0.895,0.0986,1.8931-0.5215,2.0996-1.3057
		c0.0347-0.0986,0.0347-0.1963,0.0347-0.2939C49.0382,4.7168,48.4873,4.7168,47.9362,4.7168z"/>
	<path style="fill:#BF0E2D;" d="M75.5112,35.873c-0.2754,0-0.5508,0-0.8262,0c0-3.2656,0-6.5313,0-9.8301
		c0.2754,0,0.5508,0,0.8262,0C75.5112,29.3086,75.5112,32.5752,75.5112,35.873z"/>
	<path style="fill:#6E6158;" d="M101.8131,33.7509c-0.3789,0-0.7568,0-1.1709,0c0.0693-0.3271,0.1035-0.6201,0.1729-0.915
		c0.3779-1.8936,0.7568-3.7881,1.1357-5.6816c0.0342-0.1309,0.0684-0.1641,0.2061-0.1641c0.3105,0,0.6543,0,0.999,0
		C102.7076,29.2441,102.2604,31.498,101.8131,33.7509z"/>
	<path style="fill:#6E6158;" d="M57.9547,1.5488c0.6543,0,1.3076-0.0645,1.9619,0.1641c0.6201,0.2285,0.9297,0.7832,0.8604,1.4365
		c-0.1025,0.751-0.5156,1.1436-1.377,1.2744c0.5859,0.7832,1.1367,1.5342,1.7559,2.3506c-0.2754,0-0.4814,0-0.7227,0
		c-0.0352,0-0.1035-0.0654-0.1377-0.1299c-0.4824-0.6865-0.999-1.3721-1.4805-2.0586c-0.0342-0.0645-0.1377-0.0977-0.1719-0.1621
		c-0.0352,0-0.0352,0.0313-0.0693,0.0313c0,0.752,0,1.5029,0,2.2871c-0.2061,0-0.4131,0-0.6191,0
		C57.9547,5.0429,57.9547,3.3125,57.9547,1.5488z M58.5737,3.998c0.3447-0.0322,0.6543-0.0645,0.9639-0.1299
		c0.6201-0.1631,0.8262-1.0459,0.3789-1.4697c-0.0693-0.0654-0.1377-0.1309-0.2412-0.1631
		c-0.3438-0.1631-0.7227-0.1309-1.1016-0.1309C58.5737,2.7246,58.5737,3.3457,58.5737,3.998z"/>
	<path style="fill:#6E6158;" d="M52.0332,1.5488c0.2065,0,0.3784,0,0.585,0c0,0.0664,0,0.1309,0,0.2285c0,1.0127,0,2.0254,0,3.0703
		c0,0.1309,0,0.2617,0.0347,0.3916c0.0688,0.6865,0.585,1.1104,1.3081,1.1104s1.2739-0.4238,1.3423-1.1104
		c0.0347-0.4893,0.0347-0.9795,0.0347-1.4697c0-0.6855,0-1.3389,0-2.0244c0-0.0654,0-0.1309,0-0.1963c0.2065,0,0.3784,0,0.585,0
		c0,0.0332,0.0347,0.0654,0.0347,0.0977c0,1.1758,0,2.3193,0,3.4951c0,1.0449-0.895,1.6328-1.6865,1.6982
		c-0.4824,0.0654-0.9297-0.0332-1.3428-0.2939c-0.5166-0.3271-0.8262-0.7842-0.8608-1.3721c-0.0342-1.208,0-2.3838,0-3.5918
		C51.9987,1.6142,52.0332,1.582,52.0332,1.5488z"/>
	<path style="fill:#6E6158;" d="M43.1509,1.5488c0,0.1641,0,0.3594,0,0.5234c-0.7573,0-1.4805,0-2.2378,0
		c0,0.5215,0,1.0117,0,1.5664c0.7231,0,1.4116,0,2.1689,0c0,0.1963,0,0.3594,0,0.5557c-0.7231,0-1.4116,0-2.1689,0
		c0,0.6865,0,1.3721,0,2.0576c0.7231,0,1.4805,0,2.2036,0c0,0.1953,0,0.3594,0,0.5225c-0.9297,0-1.8936,0-2.8574,0
		c0-1.7314,0-3.4619,0-5.2256C41.2232,1.5488,42.187,1.5488,43.1509,1.5488z"/>
	<path style="fill:#6E6158;" d="M38.2628,2.2675c-0.1724,0.0977-0.3101,0.1953-0.4824,0.2939
		c-0.0688-0.0654-0.103-0.1631-0.1719-0.2285c-0.3101-0.3594-0.8608-0.457-1.3081-0.1963c-0.5166,0.2949-0.5508,0.915-0.0347,1.2422
		c0.2412,0.1299,0.4819,0.2285,0.7573,0.3584c0.2065,0.0986,0.4478,0.1963,0.6543,0.3271c0.895,0.4893,1.0674,1.5674,0.3442,2.2852
		c-0.4819,0.4902-1.1016,0.6543-1.79,0.4902c-0.689-0.1631-1.0674-0.5879-1.2397-1.208c0-0.0322,0-0.0322,0-0.0986
		c0.2065-0.0645,0.3789-0.0977,0.5854-0.1631c0.0347,0.0986,0.0688,0.1963,0.103,0.2939c0.2065,0.457,0.6196,0.7188,1.1362,0.6855
		c0.5161-0.0645,0.9292-0.3916,0.9985-0.8486c0.0688-0.3594-0.0693-0.6865-0.3789-0.8818
		c-0.2412-0.1631-0.5166-0.2617-0.7573-0.3926c-0.2412-0.1299-0.4819-0.2285-0.7231-0.3584
		c-0.4819-0.2617-0.7227-0.6533-0.6543-1.208c0.0688-0.5557,0.3789-0.915,0.9297-1.1113
		C37.023,1.2558,37.8839,1.5488,38.2628,2.2675z"/>
	<path style="fill:#6E6158;" d="M73.0328,2.3007c-0.1719,0.0977-0.3096,0.1953-0.4814,0.293
		c-0.0693-0.0645-0.1035-0.1631-0.1729-0.2285c-0.3438-0.3916-0.9287-0.457-1.3418-0.1953c-0.4824,0.3262-0.4824,0.8818,0,1.209
		c0.2061,0.1299,0.4473,0.2285,0.6885,0.3262c0.2402,0.1309,0.5156,0.2285,0.7568,0.3594c0.8955,0.4893,1.0674,1.5674,0.3447,2.3184
		c-0.5166,0.5225-1.1367,0.6533-1.8594,0.457c-0.6543-0.1953-0.998-0.6523-1.1709-1.2734c0.207-0.0654,0.3789-0.0977,0.5859-0.1631
		c0.0342,0.1299,0.0684,0.2285,0.1377,0.3594c0.2402,0.457,0.7227,0.7178,1.2393,0.5879c0.5508-0.1309,0.8945-0.5557,0.8604-1.0459
		c0-0.3262-0.1719-0.5547-0.4473-0.7178c-0.2412-0.1309-0.5166-0.2617-0.792-0.3916c-0.2412-0.1309-0.4814-0.2285-0.7227-0.3594
		c-0.8604-0.5234-0.7578-1.6992,0.1035-2.1563c0.7568-0.4238,1.7549-0.1953,2.2031,0.4902
		C72.9987,2.2021,73.0328,2.2343,73.0328,2.3007z"/>
	<path style="fill:#6E6158;" d="M119.9557,7.1338c-0.6201,0.5879-1.2393,1.1104-1.8242,1.6982
		c-0.3105,0.2939-0.6201,0.4248-1.0332,0.3926c-0.5508-0.0332-1.0674,0-1.6523,0c0.0342-0.0664,0.0342-0.0986,0.0684-0.1309
		c0.4482-0.6211,0.8955-1.2422,1.3428-1.8613c0.0352-0.0664,0.1377-0.0986,0.1719-0.0986c0.9297,0,1.8594,0,2.7891,0
		C119.8862,7.1015,119.8862,7.1338,119.9557,7.1338z"/>
	<path style="fill:#6E6158;" d="M97.5446,33.7509c-0.3789,0-0.792,0-1.1709,0c0.3096-1.5352,0.6191-3.0693,0.9297-4.6377
		c0.3789,0,0.7568,0,1.1699,0C98.1636,30.6816,97.854,32.2158,97.5446,33.7509z"/>
	<path style="fill:#6E6158;" d="M98.0953,28.4277c-0.3447,0-0.5859-0.2617-0.5859-0.6211s0.3105-0.6523,0.7236-0.6523
		c0.3779,0,0.6191,0.2607,0.6191,0.5879C98.8179,28.166,98.5083,28.4609,98.0953,28.4277z"/>
</g>
</svg>
