<?xml version="1.0" encoding="utf-8"?>
<!-- Generator: Adobe Illustrator 24.0.2, SVG Export Plug-In . SVG Version: 6.00 Build 0)  -->
<svg version="1.1" id="Capa_1" xmlns="http://www.w3.org/2000/svg" xmlns:xlink="http://www.w3.org/1999/xlink" x="0px" y="0px"
	 viewBox="0 0 119.9709 36.6386" style="enable-background:new 0 0 119.9709 36.6386;" xml:space="preserve">
<g>
	<path style="fill:#073E87;" d="M45.7143,14.1103h1.6434c1.3018,0,1.9133,0.7248,1.9133,2.6843v1.9586
		c0,2.2549-0.6378,2.899-2.3753,2.899h-1.1813v-7.5419H45.7143L45.7143,14.1103z M44.4659,22.7257h2.2531
		c1.7105,0,2.7006-0.4158,3.2305-1.2474c0.4077-0.645,0.597-1.839,0.597-3.9055c0-0.3089-0.0407-2.2413-0.434-3.0594
		c-0.4883-1.0328-1.3852-1.4767-2.6336-1.4767h-3.0131V22.7257L44.4659,22.7257z M57.8801,22.7257v-1.0735h-3.8819v-3.3547h3.5286
		V17.224h-3.5286v-3.1128h3.8004v-1.0744h-5.0488v9.6898h5.1303V22.7257z M68.2901,20.0814c0-3.0448-4.1256-2.8845-4.1256-4.7235
		c0-0.6704,0.3932-1.0328,1.0581-1.0328c0.8281,0,0.9503,0.7383,0.9503,1.463h1.9949c0.1359-2.0266-0.8543-2.9125-2.8509-2.9125
		c-2.4958,0-3.2296,1.2085-3.2296,2.725c0,2.8845,4.1265,2.9914,4.1265,4.7362c0,0.6577-0.3397,1.0998-1.0319,1.0998
		c-1.127,0-1.1668-0.7782-1.1668-1.7031h-2.0502c-0.1078,1.6769,0.3669,3.1526,2.9044,3.1526
		C66.4312,22.8861,68.2901,22.5917,68.2901,20.0814L68.2901,20.0814z M75.3084,22.7257v-1.4902H71.902v-2.8311h3.0403V16.916H71.902
		v-2.3899h3.2985v-1.4894h-5.3477v9.6881h5.4556L75.3084,22.7257L75.3084,22.7257z M83.2135,16.0164
		c0.1232-2.0257-1.1261-3.1408-3.1345-3.1408c-3.3537,0-3.4742,2.4823-3.4742,4.9256c0,3.6772,0.3932,5.085,3.8402,5.085
		c0.8153,0,2.2132-0.2138,2.7695-0.3216v-4.911h-3.1626v1.4894h1.1125v2.1471c-0.3116,0.1078-0.6785,0.1884-1.0174,0.1884
		c-1.1677,0-1.4667-0.5363-1.4667-3.5694c0-1.8789,0-3.5839,1.2765-3.5839c1.0862,0,1.2357,0.7927,1.2221,1.6913L83.2135,16.0164
		L83.2135,16.0164z M89.5858,13.0368v6.7365c0,1.0744-0.4077,1.6633-1.3037,1.6633c-0.7456,0-1.262-0.4693-1.262-1.6633v-6.7365
		H84.97v6.8715c0,1.8246,1.0853,2.9778,3.3393,2.9778c2.4977,0,3.3257-1.5292,3.3257-2.9778v-6.8715L89.5858,13.0368
		L89.5858,13.0368z M95.4708,14.5262h0.9086c0.6522,0,1.0455,0.3497,1.0455,1.2756c0,0.6169-0.23,1.4214-1.0455,1.4214h-0.9086
		V14.5262L95.4708,14.5262z M95.4708,18.7134h0.5281c1.5754,0,1.4667,0.9793,1.4667,2.1344c0,0.6296-0.0544,1.2883,0.2175,1.878
		h2.0084c-0.1903-0.4032-0.231-2.2277-0.231-2.8446c0-1.7449-1.3299-1.8527-1.7774-1.9052v-0.029
		c1.3299-0.2138,1.8182-1.1396,1.8182-2.3735c0-1.6506-0.8959-2.5366-2.2938-2.5366h-3.7868v9.6889h2.0501v-4.0123H95.4708z
		 M104.3888,21.4366c-1.1541,0-1.3027-1.0727-1.3027-3.5548s0.1486-3.5567,1.3027-3.5567s1.3037,1.0744,1.3037,3.5567
		S105.5429,21.4366,104.3888,21.4366L104.3888,21.4366z M104.3888,22.8861c3.3801,0,3.3801-2.4686,3.3801-5.0043
		c0-2.5638,0-5.0053-3.3801-5.0053s-3.3801,2.4415-3.3801,5.0053C101.0087,20.4175,101.0087,22.8861,104.3888,22.8861
		L104.3888,22.8861z M115.6015,20.0814c0-3.0448-4.1256-2.8845-4.1256-4.7235c0-0.6704,0.3941-1.0328,1.0581-1.0328
		c0.829,0,0.9503,0.7383,0.9503,1.463h1.9958c0.1359-2.0266-0.8552-2.9125-2.8509-2.9125c-2.4967,0-3.2296,1.2085-3.2296,2.725
		c0,2.8845,4.1256,2.9914,4.1256,4.7362c0,0.6577-0.3388,1.0998-1.0309,1.0998c-1.127,0-1.1677-0.7782-1.1677-1.7031h-2.0492
		c-0.1087,1.6769,0.366,3.1526,2.9044,3.1526C113.7425,22.8861,115.6015,22.5917,115.6015,20.0814L115.6015,20.0814z
		 M39.6328,2.9601c0.1223-2.0266-1.127-3.1408-3.1355-3.1408c-3.352,0-3.4742,2.4832-3.4742,4.9256
		c0,3.6763,0.3941,5.0859,3.8411,5.0859c0.8144,0,2.2123-0.2147,2.7686-0.3226v-4.911h-3.1617v1.4894h1.1125v2.1471
		c-0.3125,0.1069-0.6785,0.1866-1.0174,0.1866c-1.1677,0-1.4658-0.5354-1.4658-3.5685c0-1.8789,0-3.583,1.2756-3.583
		c1.0853,0,1.2348,0.7918,1.2212,1.6905h2.0356v0.0007H39.6328z M46.9228,9.6686V8.1792h-3.4063V5.3481h3.0403V3.8588h-3.0403
		V1.4698h3.2976v-1.4894h-5.3468v9.6882H46.9228L46.9228,9.6686z M50.3382,9.6686V2.5842h0.0272l2.6743,7.0844h2.7006v-9.6881
		h-1.9143v6.7093h-0.0272l-2.6055-6.7093h-2.7695v9.6881H50.3382L50.3382,9.6686z M63.0465,9.6686V8.1792h-3.4063V5.3481h3.0394
		V3.8588h-3.0394V1.4698h3.2976v-1.4894H57.591v9.6882H63.0465L63.0465,9.6686L63.0465,9.6686z M66.5715,1.4707h0.9096
		c0.6513,0,1.0455,0.3488,1.0455,1.2746c0,0.6169-0.231,1.4223-1.0455,1.4223h-0.9096V1.4707L66.5715,1.4707z M66.5715,5.6571h0.53
		c1.5736,0,1.4649,0.9784,1.4649,2.1335c0,0.6305-0.0544,1.2883,0.2175,1.878h2.0084c-0.1903-0.4022-0.231-2.2268-0.231-2.8437
		c0-1.7449-1.329-1.8527-1.7774-1.9061V4.8925c1.3299-0.2156,1.8182-1.1415,1.8182-2.3753c0-1.6506-0.895-2.5366-2.2929-2.5366
		h-3.7868v9.6881h2.0483V5.6572L66.5715,5.6571L66.5715,5.6571z M73.9404,9.6686l0.5562-2.1462h2.7966l0.5418,2.1462h2.1588
		L77.333-0.0195h-2.7006l-2.7142,9.6881H73.9404L73.9404,9.6686z M76.8584,6.033h-1.955l0.9368-4.1872h0.0272L76.8584,6.033
		L76.8584,6.033z M86.4414,9.6686V8.0587h-3.0675v-8.0782h-2.0492v9.6881H86.4414L86.4414,9.6686z"/>
	<g>
		<polygon style="fill:#5797CF;" points="30.9277,10.5655 22.0758,1.8142 13.224,10.5655 		"/>
		<polygon style="fill:#073E87;" points="4.3721,19.3167 22.0767,36.8193 39.7804,19.3167 		"/>
		<polygon style="fill:#70BA2A;" points="22.0758,19.3167 39.7796,19.3167 30.9277,10.5655 		"/>
		<polygon style="fill:#0462A4;" points="13.224,10.5655 4.3694,19.3195 22.0732,19.3195 30.9277,10.5655 		"/>
	</g>
</g>
</svg>
