<?xml version="1.0" encoding="utf-8"?>
<!-- Generator: Adobe Illustrator 24.0.2, SVG Export Plug-In . SVG Version: 6.00 Build 0)  -->
<svg version="1.1" id="Capa_1" xmlns="http://www.w3.org/2000/svg" xmlns:xlink="http://www.w3.org/1999/xlink" x="0px" y="0px"
	 viewBox="0 0 119.97 38.64" style="enable-background:new 0 0 119.97 38.64;" xml:space="preserve">
<g>
	<path style="fill:#001838;" d="M7.8626,5.7809c2.3379-1.4375,5.0957-2.1582,7.8252-2.0996v7.709
		c-1.9482,0.1504-3.9287,0.75-5.3066,2.1895c-1.3203,1.2285-2.251,2.9092-2.4014,4.7383C7.8011,14.1188,7.9212,9.9508,7.8626,5.7809
		"/>
	<path style="fill:#001838;" d="M16.4388,11.4508c4.2881-0.1191,8.6074,0,12.8965-0.0605c0.7773,1.5586,1.5303,3.1494,1.7705,4.8887
		c0.209,0.9297,0.1494,1.8867,0.3584,2.8184c-2.6094,0.1504-5.2168,0.0313-7.8281,0.0605c-0.1191-0.9922-0.21-1.9795-0.5996-2.8789
		C21.8958,13.7008,19.3489,11.6598,16.4388,11.4508"/>
	<path style="fill:#001838;" d="M96.5442,11.9c1.9482-0.1191,3.9297-0.1484,5.8779-0.0313
		c0.8115,0.0313,1.6787,0.3887,2.1279,1.1094c0.3027,0.541,0.2715,1.2021,0.3301,1.8008c-0.957,0-1.9189,0.0605-2.877,0
		c-0.0313-0.3594-0.0605-0.8398-0.541-0.8096c-1.5-0.1494-2.999-0.0596-4.4971,0.0303c-0.1211,0.0596-0.3916,0.1807-0.5127,0.2383
		v0.9619c0.6611,0.3896,1.502,0.2383,2.25,0.2686c1.7393,0.0605,3.5098-0.1777,5.2197,0.2998
		c0.5088,0.1211,0.8398,0.5703,1.1387,0.96c0.0283,0.2402,0.0908,0.4814,0.1787,0.6904c0.0615,1.1689,0.2119,2.7275-0.9893,3.3896
		c-1.6797,0.6885-3.5674,0.4492-5.3379,0.5078c-1.4688-0.0586-2.999,0.1807-4.3799-0.4482
		c-0.9893-0.4814-0.8379-1.6807-0.8379-2.5791h2.8174v0.6289c0.2705,0.1484,0.5703,0.3594,0.9014,0.3301
		c1.3496,0.0293,2.6699,0.0293,4.0176,0c0.3301,0,0.6309-0.1494,0.9307-0.2695v-0.9297c-0.0596-0.0605-0.21-0.2109-0.2686-0.2715
		c-1.6191-0.209-3.2402,0-4.8301-0.1484c-1.2012-0.0293-2.7891,0.0586-3.4189-1.2012c-0.3584-1.1104-0.3906-2.458,0.1797-3.5068
		C94.5648,12.0504,95.6448,11.9899,96.5442,11.9"/>
	<path style="fill:#001838;" d="M35.0335,21.2262c0.0313-3.1191-0.0313-6.2373,0.0313-9.3574c0.957,0.0313,1.9189,0,2.877,0
		c0,3.1201-0.0303,6.2383,0,9.3574C36.9837,21.1949,35.9915,21.1949,35.0335,21.2262"/>
	<path style="fill:#001838;" d="M39.471,11.8688c1.499,0.0313,3.0283-0.0293,4.5303,0.0313
		c1.8271,2.3076,3.748,4.5586,5.4854,6.9277c0.1221-2.3096,0.0313-4.6201,0.0313-6.959c0.9004,0,1.7988,0.0313,2.7295,0
		c0.0303,3.1201,0,6.2402,0.0303,9.3574h-4.5889c-1.7988-2.3398-3.6592-4.5869-5.458-6.8975
		c-0.0586,2.3105-0.0313,4.6201-0.0313,6.9277c-0.8984,0-1.8301-0.0303-2.7285,0C39.5325,18.109,39.5023,14.9889,39.471,11.8688"/>
	<path style="fill:#001838;" d="M67.1526,11.8688c0.96-0.0293,1.9189,0,2.9092,0c0.0313,1.8896,0,3.8096,0,5.7002
		c-0.0303,0.5703,0.2695,1.2588,0.9004,1.3496c1.2002,0.1484,2.3984,0.0898,3.6279,0.0898c0.4512,0,0.8701-0.1221,1.29-0.2705
		c0.3311-0.4502,0.4209-1.0186,0.4209-1.5586c0.0293-1.7715,0-3.5391,0.0293-5.3096c0.9893,0.0889,1.9775-0.1182,2.9385,0.1191
		c-0.2988,2.3994,0.1201,4.8906-0.2402,7.2871c-0.2383,0.5127-0.4795,1.0518-0.9893,1.3525
		c-1.2607,0.8398-2.8809,0.5986-4.3174,0.6602c-1.7109-0.0615-3.5107,0.207-5.1592-0.4512
		c-0.9893-0.4502-1.3496-1.6191-1.4102-2.6406C67.1224,16.0992,67.1839,13.9986,67.1526,11.8688"/>
	<path style="fill:#001838;" d="M11.8206,13.6988c2.0088-1.4395,4.7969-1.6465,6.957-0.4805
		c1.0195,0.3623,1.7383,1.2012,2.3701,2.0098c1.5,1.8604,1.8281,4.6211,0.7793,6.7783c-0.8701,2.1289-2.9404,3.6582-5.2168,3.96
		c-2.8809,0.5391-5.8809-1.2002-7.0791-3.8086c-0.7217-1.3789-0.8691-2.9707-0.5391-4.4707
		C9.5413,16.1002,10.5599,14.7477,11.8206,13.6988"/>
	<path style="fill:#001838;" d="M119.6673,20.8375c-1.5879-3.0293-3.2393-5.999-4.8604-8.9961
		c-1.2588,0.0273-2.5469,0.0273-3.8389,0c-0.5098,0.959-1.0479,1.8887-1.5889,2.8486c-1.1396,2.2188-2.5176,4.2871-3.5684,6.5381
		c1.0508-0.0313,2.0986-0.0313,3.1201-0.0313c0.2998-0.5391,0.5996-1.1094,0.8984-1.6484h6
		c0.2686,0.5391,0.5693,1.0781,0.7783,1.6484c0.9893,0,2.0098,0.0313,3.0283,0c0.0908-0.0605,0.2412-0.207,0.2998-0.2695
		C119.9056,20.8961,119.7571,20.8668,119.6673,20.8375 M110.8499,17.4479c0.7793-0.9893,1.2598-2.1582,1.8584-3.2676
		c0.0615-0.0313,0.1807-0.0898,0.2422-0.0898c0.6279,1.1377,1.1973,2.3096,1.8564,3.4492
		C113.4886,17.5074,112.139,17.6578,110.8499,17.4479"/>
	<path style="fill:#001838;" d="M92.5247,15.7096c0-0.96,0.1797-2.0391-0.4189-2.8789c-0.4805-0.7529-1.4385-0.8721-2.2197-0.9619
		c-3.0293-0.0273-6.0586,0.0605-9.0879-0.0586c0,3.1182,0.0313,6.2676,0,9.3848c0.959-0.0264,1.9482,0,2.9082,0v-2.3965
		c1.8613,0.0586,3.749-0.1797,5.5801,0.1504c0.0586,0.0898,0.209,0.2988,0.2686,0.418c0.0605,0.5996,0.0605,1.2012,0.0313,1.8281
		c0.9893,0.0313,1.9492,0,2.9385,0.0313c-0.0908-0.959,0.1797-1.9785-0.2402-2.8496c-0.2998-0.6309-1.0791-0.5684-1.6484-0.748
		c0.5098-0.1191,1.0205-0.3008,1.4697-0.5713C92.2552,16.609,92.5247,16.19,92.5247,15.7096 M89.4056,16.399
		c-0.2686,0.0293-0.54,0.0898-0.8086,0.1494c-1.6504,0.0313-3.2998,0-4.9199,0.0313c-0.0293-0.8105-0.0293-1.6211-0.0293-2.4316
		c1.9199,0.0908,3.8711-0.209,5.7891,0.2119c0.0586,0.1201,0.1787,0.3584,0.2383,0.4775
		C89.7366,15.3785,89.7366,15.9488,89.4056,16.399"/>
	<path style="fill:#001838;" d="M65.8646,17.5982c-0.1221-0.7188-0.9014-0.959-1.5303-1.0498
		c0.0293-0.0586,0.0605-0.1494,0.0879-0.21c1.1426-0.2695,1.291-1.5908,1.1719-2.5498c-0.1191-0.3584-0.2412-0.748-0.4189-1.1113
		c-0.6318-0.5977-1.5303-0.7461-2.3994-0.7773c-2.9688-0.0313-5.9092,0.0313-8.8779-0.0313c0,3.1201,0.0293,6.2402,0,9.3574h9.1172
		c0.8994-0.0293,1.9492-0.1211,2.5176-0.8984C66.0423,19.5172,65.9837,18.4977,65.8646,17.5982 M56.806,13.9391
		c1.6807,0.0313,3.3291,0,5.0068,0.0313c0.3018,0,0.5703,0.1494,0.8701,0.2373c0.1221,0.5723,0.0605,1.2295-0.6309,1.3506
		c-1.707-0.0576-3.417,0.0303-5.127-0.0576c-0.0586-0.0322-0.1777-0.1211-0.2686-0.1514
		C56.7767,14.899,56.7767,14.4195,56.806,13.9391 M62.9251,18.9176c-2.0098,0.3906-4.0801,0.0586-6.1191,0.1816
		c0-0.5703-0.0293-1.1113,0-1.6797h5.0078c0.3887,0,0.8105,0,1.1416,0.2363C63.2239,18.0191,63.014,18.4977,62.9251,18.9176"/>
	<path style="fill:#001838;" d="M0.0345,19.1871h7.7959c0.1494,1.498,0.3906,3.0273,1.2617,4.3203
		c0.8086,1.0791,1.8564,1.9473,2.9375,2.7285c0.6895,0.3301,1.4404,0.5391,2.1318,0.8086c-4.0518,0-8.1016-0.0293-12.1494,0.0313
		c-0.7793-1.8604-1.5576-3.75-1.8281-5.7598C0.1839,20.5973,0.0648,19.9078,0.0345,19.1871"/>
	<path style="fill:#001838;" d="M22.2269,23.7457c0.6299-1.0205,1.0791-2.1289,1.2891-3.2988c0,4.1709,0.0303,8.3086,0,12.4766
		c-0.4492,0.1797-0.8994,0.3896-1.3203,0.6309c-2.0391,0.8691-4.2578,1.5586-6.5088,1.3789
		c0.0322-0.541,0.0635-1.0791-0.0273-1.6201c0.0908-0.4805,0.0596-0.9893,0.0273-1.4707c0.0635-1.0479,0.0635-2.0967,0-3.1475
		c0.0635-0.541,0.0635-1.082,0.0322-1.6172c0.4814,0,0.9912,0,1.4697-0.0332c0.4805-0.209,0.958-0.3594,1.4404-0.5078
		C20.0384,25.9957,21.2376,24.9176,22.2269,23.7457"/>
</g>
</svg>
