<?xml version="1.0" encoding="utf-8"?>
<!-- Generator: Adobe Illustrator 24.0.2, SVG Export Plug-In . SVG Version: 6.00 Build 0)  -->
<svg version="1.1" id="Capa_1" xmlns="http://www.w3.org/2000/svg" xmlns:xlink="http://www.w3.org/1999/xlink" x="0px" y="0px"
	 viewBox="0 0 119.97 38.64" style="enable-background:new 0 0 119.97 38.64;" xml:space="preserve">
<g>
	<g>
		<g>
			<g>
				<g>
					<g>
						<g>
							<g>
								<g>
									<defs>
										<path id="SVGID_1_" d="M98.6442,12.9004c-0.6025-1.3562-1.4135-2.5527-2.4303-3.5695
											c-1.0174-1.0174-2.2134-1.8271-3.5702-2.4108c-1.3653-0.594-2.797-0.8852-4.3134-0.8852
											c-1.5828,0.0567-3.0523,0.3863-4.4345,1.0064c-1.375,0.6025-2.5618,1.403-3.5695,2.4108
											c-1.0083,1.0076-1.79,2.1762-2.3645,3.5233c-0.5752,1.347-0.8572,2.7879-0.8572,4.3323
											c0,1.6004,0.3009,3.0894,0.8852,4.4456c0.583,1.3562,1.3933,2.5338,2.4107,3.5415
											c1.0174,1.0077,2.2134,1.7893,3.5695,2.3456c1.3659,0.5563,2.8165,0.8383,4.3609,0.8383
											c1.5828,0,3.0517-0.301,4.4078-0.8852c1.3562-0.583,2.5338-1.3933,3.5422-2.4108
											c0.9979-1.0168,1.7984-2.1944,2.3827-3.5415c0.5934-1.347,0.8846-2.7879,0.8846-4.3329
											C99.5489,15.726,99.2467,14.2572,98.6442,12.9004z M93.1049,19.3158c-0.2729,0.6319-0.6501,1.1868-1.1112,1.6675
											c-0.4703,0.4794-1.0168,0.8572-1.648,1.1392c-0.6312,0.2729-1.3093,0.4149-2.0153,0.4149
											c-0.7165,0-1.3764-0.1329-1.9978-0.4149c-0.6208-0.2821-1.1673-0.6585-1.648-1.1392
											c-0.4794-0.4807-0.8566-1.037-1.1393-1.6675c-0.2729-0.6319-0.4143-1.3001-0.4143-2.0154
											c0-0.7438,0.1322-1.4324,0.4143-2.0629c0.2827-0.6305,0.6592-1.1868,1.1393-1.648
											c0.4801-0.471,1.0272-0.8292,1.648-1.0924c0.6227-0.2638,1.2819-0.3961,1.9978-0.3961
											c1.4793,0.0652,2.7032,0.5934,3.6633,1.5815c0.951,0.9894,1.4597,2.1951,1.5262,3.6177
											C93.5198,18.0072,93.3876,18.6853,93.1049,19.3158z"/>
									</defs>
									<clipPath id="SVGID_2_">
										<use xlink:href="#SVGID_1_"  style="overflow:visible;"/>
									</clipPath>
									
										<linearGradient id="SVGID_3_" gradientUnits="userSpaceOnUse" x1="332.0891" y1="-607.6052" x2="411.5483" y2="-607.6052" gradientTransform="matrix(1 0 0 -1 -312 -588.5059)">
										<stop  offset="0" style="stop-color:#FD7608"/>
										<stop  offset="0.5293" style="stop-color:#FD2940"/>
										<stop  offset="0.8306" style="stop-color:#FD025E"/>
									</linearGradient>
									<path style="clip-path:url(#SVGID_2_);fill:url(#SVGID_3_);" d="M98.6442,12.9004
										c-0.6025-1.3562-1.4135-2.5527-2.4303-3.5695c-1.0174-1.0174-2.2134-1.8271-3.5702-2.4108
										c-1.3653-0.594-2.797-0.8852-4.3134-0.8852c-1.5828,0.0567-3.0523,0.3863-4.4345,1.0064
										c-1.375,0.6025-2.5618,1.403-3.5695,2.4108c-1.0083,1.0076-1.79,2.1762-2.3645,3.5233
										c-0.54,1.265-0.8123,2.6172-0.8442,4.0561h-0.5641c-0.0137-1.5021-0.2912-2.924-0.852-4.247
										c-0.5654-1.3562-1.3653-2.5527-2.3827-3.5701c-1.0168-1.0168-2.2134-1.8265-3.5695-2.4101
										c-1.3659-0.594-2.8159-0.8858-4.3603-0.8858c-1.4786,0-2.8921,0.3022-4.2391,0.9047s-2.5338,1.4129-3.5695,2.4303
										s-1.8558,2.2134-2.4772,3.5695c-0.5973,1.334-0.9035,2.7319-0.9178,4.2085h-0.8917v-6.6128
										c0-0.7615-0.2338-1.4181-0.7706-1.9548c-0.4527-0.4592-0.9653-0.71-1.592-0.7803V5.5588
										c0.6755-0.0658,1.2702-0.3485,1.773-0.8754c0.5745-0.6032,0.8572-1.3105,0.8572-2.1105
										c0-0.8012-0.282-1.5073-0.8572-2.1098c-0.5739-0.6025-1.2624-0.9047-2.0622-0.9047c-0.8005,0-1.5073,0.2638-2.1098,0.8298
										c-0.6032,0.5654-0.9236,1.2441-0.9517,2.044c0,0.9894,0.2827,1.7613,0.8572,2.298
										c0.4781,0.4468,1.0735,0.7132,1.7737,0.8103v2.1528c-0.6455,0.0866-1.2174,0.3185-1.7164,0.7276
										c-0.5836,0.4846-0.9595,1.0989-0.9595,1.8329v6.7776h-1.1783v-3.1064c0-1.0878-0.2123-2.1209-0.6553-3.0894
										c-0.4423-0.9692-1.0331-1.7991-1.7704-2.4999c-0.7478-0.7016-1.6056-1.2546-2.5925-1.6604
										c-0.9777-0.4065-2.0017-0.609-3.0621-0.609c-1.9372,0-3.634,0.5895-5.082,1.7711
										c-0.7185-0.6006-1.5118-1.0526-2.3795-1.3379c-0.867-0.2853-1.7528-0.4332-2.6569-0.4332
										c-1.1158,0-2.1671,0.2117-3.137,0.6267c-0.9868,0.4247-1.8356,0.996-2.5645,1.7059
										c-0.7289,0.7106-1.3001,1.5503-1.7248,2.4999c-0.4247,0.951-0.637,1.9561-0.637,3.0165v11.171
										c-0.0274,0.3967,0.0365,0.7739,0.2032,1.134c0.1654,0.3602,0.3784,0.6735,0.6553,0.9503
										c0.2677,0.2768,0.5908,0.4892,0.9497,0.6364c0.3609,0.157,0.7562,0.2306,1.1809,0.2306
										c0.7843,0,1.4571-0.2677,2.0199-0.7934c0.5628-0.5263,0.8676-1.1529,0.9321-1.8818V14.0996
										c0.028-0.5999,0.2488-1.0976,0.6553-1.4942c0.4058-0.3967,0.9035-0.5902,1.4754-0.5902
										c0.5172,0,0.9881,0.1941,1.4115,0.5726c0.424,0.3785,0.6546,0.867,0.6826,1.476v5.6259
										c0,0.7563,0.2951,1.4024,0.9035,1.928c0.6006,0.525,1.2826,0.7934,2.0388,0.7934c0.8214,0,1.5229-0.2951,2.1124-0.8676
										c0.5908-0.5719,0.8859-1.2636,0.8859-2.0844v-5.3953c0-0.6637,0.213-1.1718,0.6553-1.5222
										c0.4345-0.3491,0.9139-0.525,1.4304-0.525c0.6084,0,1.1152,0.1928,1.5216,0.5902
										c0.4058,0.3869,0.6084,0.8754,0.6084,1.4473v11.0407c0,0.7843,0.2964,1.476,0.8865,2.0662
										c0.5895,0.5902,1.2812,0.8858,2.0655,0.8858s1.476-0.2768,2.0844-0.8207c0.5993-0.5445,0.9035-1.1803,0.9035-1.9092
										v-8.0601h1.1783v8.3929c0,0.822,0.484,1.4617,1.0402,1.9111c0.5654,0.4586,1.2552,0.6839,2.0557,0.6839
										c0.8943-0.0521,1.4728-0.3374,2.0004-0.8481c0.527-0.5107,0.6624-1.1418,0.6624-1.9111v-8.2288h0.8911
										c0.0143,1.5913,0.2912,3.0602,0.8338,4.4013c0.555,1.3744,1.3275,2.5521,2.3163,3.5415
										c0.9803,0.9881,2.1671,1.7606,3.5422,2.3169c1.3744,0.5563,2.8817,0.8383,4.5205,0.8383
										c1.2995,0,2.3365-0.1036,3.1272-0.3205s1.4884-0.4996,2.1098-0.8383v0.0469c0.2169,0.867-0.0182,1.8082-0.697,2.8256
										c-0.2729,0.3394-0.6501,0.5367-1.1112,0.6032h-3.4282c-0.9321,0.0273-1.7997,0.1694-2.5996,0.4143
										c-1.7893,0.5276-3.1552,1.375-4.0782,2.5521c-0.5276,0.5843-0.7634,1.2715-0.7159,2.0629
										c0.0469,0.7914,0.3674,1.4597,0.951,2.016c0.6214,0.6116,1.3568,0.923,2.2042,0.923c0.8481,0,1.5828-0.301,2.2042-0.8852
										c0.5934-0.583,1.2715-0.9035,2.0434-0.9692h1.4767v0.0169h0.2638h1.5737c1.1112-0.0573,2.1476-0.3114,3.1083-0.7634
										c0.951-0.4423,1.7802-1.0357,2.4772-1.7802c0.6976-0.7445,1.2526-1.648,1.6675-2.713
										c0.4234-1.0735,0.6116-2.0531,0.5836-2.9481c0-2.7214-0.4514-4.6808-1.347-5.8858
										c0.8794-1.5822,1.3281-3.4015,1.3444-5.4552h0.5511c0,0.0169-0.0026,0.0332-0.0026,0.0508
										c0,1.6004,0.3009,3.0891,0.8852,4.4456c0.583,1.3562,1.3933,2.5338,2.4107,3.5409c1.0174,1.0083,2.2134,1.79,3.5695,2.3463
										c1.3659,0.5566,2.8165,0.838,4.3609,0.838c1.5828,0,3.0517-0.3003,4.4078-0.8846c1.3562-0.583,2.5338-1.3939,3.5422-2.411
										c0.9986-1.0174,1.7984-2.1942,2.3827-3.5415c0.5934-1.347,0.8846-2.7885,0.8846-4.3329
										C99.5489,15.726,99.2467,14.2572,98.6442,12.9004z M60.6418,15.1965c0.2925-0.6208,0.6781-1.1673,1.1588-1.6473
										c0.4794-0.4807,1.0266-0.867,1.648-1.1588c0.6214-0.2918,1.2715-0.443,1.9496-0.443c0.6781,0,1.3379,0.1316,1.9691,0.4234
										c0.6318,0.2729,1.1868,0.6501,1.6675,1.1112c0.4807,0.4703,0.867,1.0161,1.1588,1.648
										c0.2755,0.5973,0.4208,1.237,0.4364,1.9014H60.2054C60.2217,16.3951,60.3656,15.7827,60.6418,15.1965z M70.2404,19.1425
										c-0.2638,0.6136-0.6318,1.1777-1.093,1.6675c-0.4618,0.4905-1.0174,0.8768-1.6675,1.1595
										c-0.6409,0.2723-1.3386,0.4143-2.0818,0.4143c-0.7432,0-1.4317-0.1511-2.0622-0.443
										c-0.6403-0.2918-1.1868-0.6774-1.648-1.1581c-0.4716-0.4807-0.8292-1.037-1.093-1.6675
										c-0.2488-0.5966-0.3765-1.2194-0.3902-1.8583h10.4265C70.6176,17.9297,70.4899,18.5543,70.2404,19.1425z M93.1056,19.3158
										c-0.2729,0.6319-0.6507,1.1868-1.1119,1.6675c-0.4703,0.4794-1.0168,0.8572-1.648,1.1392
										c-0.6312,0.2729-1.3093,0.4149-2.0153,0.4149c-0.7165,0-1.3757-0.1329-1.9971-0.4149s-1.1673-0.6585-1.648-1.1392
										c-0.4801-0.4807-0.8572-1.037-1.1393-1.6675c-0.2729-0.6319-0.4149-1.3001-0.4149-2.0154
										c0-0.7438,0.1322-1.4324,0.4149-2.0629c0.282-0.6305,0.6585-1.1868,1.1393-1.648c0.4794-0.471,1.0266-0.8292,1.648-1.0924
										c0.6221-0.2638,1.2813-0.3961,1.9971-0.3961c1.4793,0.0652,2.7032,0.5934,3.6633,1.5815
										c0.9517,0.9894,1.4597,2.1951,1.5262,3.6177C93.5198,18.0072,93.3876,18.6853,93.1056,19.3158z"/>
								</g>
							</g>
						</g>
					</g>
				</g>
			</g>
		</g>
	</g>
	<g>
		<g>
			<g>
				<g>
					<g>
						<g>
							<g>
								<g>
									<defs>
										<path id="SVGID_4_" d="M28.1592,6.0662c0.9035,0,1.7893,0.1479,2.6563,0.4332c0.867,0.2853,1.661,0.7374,2.3795,1.3379
											c1.448-1.1809,3.1448-1.7711,5.082-1.7711c1.0604,0,2.0844,0.2026,3.0621,0.6084
											c0.9868,0.4058,1.8447,0.9595,2.5925,1.661c0.7374,0.7009,1.3281,1.5307,1.7704,2.4993
											c0.4429,0.9692,0.6553,2.0017,0.6553,3.0901v11.3912c0,0.7296-0.3042,1.3653-0.9035,1.9098
											c-0.6084,0.5439-1.3001,0.8201-2.0844,0.8201s-1.476-0.2951-2.0662-0.8858c-0.5895-0.5895-0.8859-1.2812-0.8859-2.0655
											V14.054c0-0.5719-0.2026-1.0604-0.6084-1.448c-0.4058-0.3967-0.9132-0.5895-1.5216-0.5895
											c-0.5165,0-0.9959,0.1752-1.4304,0.525c-0.4423,0.3504-0.6553,0.8585-0.6553,1.5216v5.3959
											c0,0.8207-0.2951,1.5125-0.8859,2.0844c-0.5895,0.5719-1.291,0.8676-2.1124,0.8676c-0.7562,0-1.4382-0.2683-2.0388-0.794
											c-0.6084-0.5257-0.9035-1.1718-0.9035-1.9274v-5.6265c-0.028-0.6084-0.2586-1.0976-0.6826-1.476
											c-0.4234-0.3778-0.8943-0.5719-1.4115-0.5719c-0.5719,0-1.0696,0.1928-1.4754,0.5902
											c-0.4065,0.3967-0.6273,0.8943-0.6553,1.4942v11.2628c-0.0645,0.7289-0.3687,1.3555-0.9321,1.8818
											c-0.5628,0.525-1.2357,0.7934-2.0199,0.7934c-0.4247,0-0.8207-0.0736-1.1809-0.2306
											c-0.3596-0.1472-0.682-0.3596-0.9504-0.6371c-0.2762-0.2762-0.4892-0.5895-0.6553-0.9497
											c-0.1661-0.3608-0.2306-0.7374-0.2026-1.1347v-11.171c0-1.0604,0.2123-2.0655,0.637-3.0159
											c0.4247-0.9503,0.9959-1.79,1.7248-2.4999s1.5776-1.2819,2.5645-1.7066C25.9914,6.2779,27.0427,6.0662,28.1592,6.0662z"/>
									</defs>
									<clipPath id="SVGID_5_">
										<use xlink:href="#SVGID_4_"  style="overflow:visible;"/>
									</clipPath>
									
										<linearGradient id="SVGID_6_" gradientUnits="userSpaceOnUse" x1="332.0891" y1="-607.6052" x2="411.5483" y2="-607.6052" gradientTransform="matrix(1 0 0 -1 -312 -588.5059)">
										<stop  offset="0" style="stop-color:#FD7608"/>
										<stop  offset="0.5293" style="stop-color:#FD2940"/>
										<stop  offset="0.8306" style="stop-color:#FD025E"/>
									</linearGradient>
									<path style="clip-path:url(#SVGID_5_);fill:url(#SVGID_6_);" d="M98.6442,12.9004
										c-0.6025-1.3562-1.4135-2.5527-2.4303-3.5695c-1.0174-1.0174-2.2134-1.8271-3.5702-2.4108
										c-1.3653-0.594-2.797-0.8852-4.3134-0.8852c-1.5828,0.0567-3.0523,0.3863-4.4345,1.0064
										c-1.375,0.6025-2.5618,1.403-3.5695,2.4108c-1.0083,1.0076-1.79,2.1762-2.3645,3.5233
										c-0.54,1.265-0.8123,2.6172-0.8442,4.0561h-0.5641c-0.0137-1.5021-0.2912-2.924-0.852-4.247
										c-0.5654-1.3562-1.3653-2.5527-2.3827-3.5701c-1.0168-1.0168-2.2134-1.8265-3.5695-2.4101
										c-1.3659-0.594-2.8159-0.8858-4.3603-0.8858c-1.4786,0-2.8921,0.3022-4.2391,0.9047s-2.5338,1.4129-3.5695,2.4303
										s-1.8558,2.2134-2.4772,3.5695c-0.5973,1.334-0.9035,2.7319-0.9178,4.2085h-0.8917v-6.6128
										c0-0.7615-0.2338-1.4181-0.7706-1.9548c-0.4527-0.4592-0.9653-0.71-1.592-0.7803V5.5588
										c0.6755-0.0658,1.2702-0.3485,1.773-0.8754c0.5745-0.6032,0.8572-1.3105,0.8572-2.1105
										c0-0.8012-0.282-1.5073-0.8572-2.1098c-0.5739-0.6025-1.2624-0.9047-2.0622-0.9047c-0.8005,0-1.5073,0.2638-2.1098,0.8298
										c-0.6032,0.5654-0.9236,1.2441-0.9517,2.044c0,0.9894,0.2827,1.7613,0.8572,2.298
										c0.4781,0.4468,1.0735,0.7132,1.7737,0.8103v2.1528c-0.6455,0.0866-1.2174,0.3185-1.7164,0.7276
										c-0.5836,0.4846-0.9595,1.0989-0.9595,1.8329v6.7776h-1.1783v-3.1064c0-1.0878-0.2123-2.1209-0.6553-3.0894
										c-0.4423-0.9692-1.0331-1.7991-1.7704-2.4999c-0.7478-0.7016-1.6056-1.2546-2.5925-1.6604
										c-0.9777-0.4065-2.0017-0.609-3.0621-0.609c-1.9372,0-3.634,0.5895-5.082,1.7711
										c-0.7185-0.6006-1.5118-1.0526-2.3795-1.3379c-0.867-0.2853-1.7528-0.4332-2.6569-0.4332
										c-1.1158,0-2.1671,0.2117-3.137,0.6267c-0.9868,0.4247-1.8356,0.996-2.5645,1.7059
										c-0.7289,0.7106-1.3001,1.5503-1.7248,2.4999c-0.4247,0.951-0.637,1.9561-0.637,3.0165v11.171
										c-0.0274,0.3967,0.0365,0.7739,0.2032,1.134c0.1654,0.3602,0.3784,0.6735,0.6553,0.9503
										c0.2677,0.2768,0.5908,0.4892,0.9497,0.6364c0.3609,0.157,0.7562,0.2306,1.1809,0.2306
										c0.7843,0,1.4571-0.2677,2.0199-0.7934c0.5628-0.5263,0.8676-1.1529,0.9321-1.8818V14.0996
										c0.028-0.5999,0.2488-1.0976,0.6553-1.4942c0.4058-0.3967,0.9035-0.5902,1.4754-0.5902
										c0.5172,0,0.9881,0.1941,1.4115,0.5726c0.424,0.3785,0.6546,0.867,0.6826,1.476v5.6259
										c0,0.7563,0.2951,1.4024,0.9035,1.928c0.6006,0.525,1.2826,0.7934,2.0388,0.7934c0.8214,0,1.5229-0.2951,2.1124-0.8676
										c0.5908-0.5719,0.8859-1.2636,0.8859-2.0844v-5.3953c0-0.6637,0.213-1.1718,0.6553-1.5222
										c0.4345-0.3491,0.9139-0.525,1.4304-0.525c0.6084,0,1.1152,0.1928,1.5216,0.5902
										c0.4058,0.3869,0.6084,0.8754,0.6084,1.4473v11.0407c0,0.7843,0.2964,1.476,0.8865,2.0662
										c0.5895,0.5902,1.2812,0.8858,2.0655,0.8858s1.476-0.2768,2.0844-0.8207c0.5993-0.5445,0.9035-1.1803,0.9035-1.9092
										v-8.0601h1.1783v8.3929c0,0.822,0.484,1.4617,1.0402,1.9111c0.5654,0.4586,1.2552,0.6839,2.0557,0.6839
										c0.8943-0.0521,1.4728-0.3374,2.0004-0.8481c0.527-0.5107,0.6624-1.1418,0.6624-1.9111v-8.2288h0.8911
										c0.0143,1.5913,0.2912,3.0602,0.8338,4.4013c0.555,1.3744,1.3275,2.5521,2.3163,3.5415
										c0.9803,0.9881,2.1671,1.7606,3.5422,2.3169c1.3744,0.5563,2.8817,0.8383,4.5205,0.8383
										c1.2995,0,2.3365-0.1036,3.1272-0.3205s1.4884-0.4996,2.1098-0.8383v0.0469c0.2169,0.867-0.0182,1.8082-0.697,2.8256
										c-0.2729,0.3394-0.6501,0.5367-1.1112,0.6032h-3.4282c-0.9321,0.0273-1.7997,0.1694-2.5996,0.4143
										c-1.7893,0.5276-3.1552,1.375-4.0782,2.5521c-0.5276,0.5843-0.7634,1.2715-0.7159,2.0629
										c0.0469,0.7914,0.3674,1.4597,0.951,2.016c0.6214,0.6116,1.3568,0.923,2.2042,0.923c0.8481,0,1.5828-0.301,2.2042-0.8852
										c0.5934-0.583,1.2715-0.9035,2.0434-0.9692h1.4767v0.0169h0.2638h1.5737c1.1112-0.0573,2.1476-0.3114,3.1083-0.7634
										c0.951-0.4423,1.7802-1.0357,2.4772-1.7802c0.6976-0.7445,1.2526-1.648,1.6675-2.713
										c0.4234-1.0735,0.6116-2.0531,0.5836-2.9481c0-2.7214-0.4514-4.6808-1.347-5.8858
										c0.8794-1.5822,1.3281-3.4015,1.3444-5.4552h0.5511c0,0.0169-0.0026,0.0332-0.0026,0.0508
										c0,1.6004,0.3009,3.0891,0.8852,4.4456c0.583,1.3562,1.3933,2.5338,2.4107,3.5409c1.0174,1.0083,2.2134,1.79,3.5695,2.3463
										c1.3659,0.5566,2.8165,0.838,4.3609,0.838c1.5828,0,3.0517-0.3003,4.4078-0.8846c1.3562-0.583,2.5338-1.3939,3.5422-2.411
										c0.9986-1.0174,1.7984-2.1942,2.3827-3.5415c0.5934-1.347,0.8846-2.7885,0.8846-4.3329
										C99.5489,15.726,99.2467,14.2572,98.6442,12.9004z M60.6418,15.1965c0.2925-0.6208,0.6781-1.1673,1.1588-1.6473
										c0.4794-0.4807,1.0266-0.867,1.648-1.1588c0.6214-0.2918,1.2715-0.443,1.9496-0.443c0.6781,0,1.3379,0.1316,1.9691,0.4234
										c0.6318,0.2729,1.1868,0.6501,1.6675,1.1112c0.4807,0.4703,0.867,1.0161,1.1588,1.648
										c0.2755,0.5973,0.4208,1.237,0.4364,1.9014H60.2054C60.2217,16.3951,60.3656,15.7827,60.6418,15.1965z M70.2404,19.1425
										c-0.2638,0.6136-0.6318,1.1777-1.093,1.6675c-0.4618,0.4905-1.0174,0.8768-1.6675,1.1595
										c-0.6409,0.2723-1.3386,0.4143-2.0818,0.4143c-0.7432,0-1.4317-0.1511-2.0622-0.443
										c-0.6403-0.2918-1.1868-0.6774-1.648-1.1581c-0.4716-0.4807-0.8292-1.037-1.093-1.6675
										c-0.2488-0.5966-0.3765-1.2194-0.3902-1.8583h10.4265C70.6176,17.9297,70.4899,18.5543,70.2404,19.1425z M93.1056,19.3158
										c-0.2729,0.6319-0.6507,1.1868-1.1119,1.6675c-0.4703,0.4794-1.0168,0.8572-1.648,1.1392
										c-0.6312,0.2729-1.3093,0.4149-2.0153,0.4149c-0.7165,0-1.3757-0.1329-1.9971-0.4149s-1.1673-0.6585-1.648-1.1392
										c-0.4801-0.4807-0.8572-1.037-1.1393-1.6675c-0.2729-0.6319-0.4149-1.3001-0.4149-2.0154
										c0-0.7438,0.1322-1.4324,0.4149-2.0629c0.282-0.6305,0.6585-1.1868,1.1393-1.648c0.4794-0.471,1.0266-0.8292,1.648-1.0924
										c0.6221-0.2638,1.2813-0.3961,1.9971-0.3961c1.4793,0.0652,2.7032,0.5934,3.6633,1.5815
										c0.9517,0.9894,1.4597,2.1951,1.5262,3.6177C93.5198,18.0072,93.3876,18.6853,93.1056,19.3158z"/>
								</g>
							</g>
						</g>
					</g>
				</g>
			</g>
		</g>
	</g>
	<g>
		<g>
			<g>
				<g>
					<g>
						<g>
							<g>
								<g>
									<defs>
										<path id="SVGID_7_" d="M52.3518,8.464C51.8463,7.9194,51.1956,7.651,50.442,7.651
											c-0.7536,0.0346-1.3275,0.2853-1.8857,0.7699c-0.5485,0.4846-0.8298,1.0989-0.8298,1.8336v15.3952
											c0,0.822,0.3452,1.4617,0.8689,1.9118c0.5322,0.4579,1.1262,0.6833,1.8799,0.6833
											c0.8416-0.0521,1.5099-0.3374,2.0056-0.8481c0.497-0.5107,0.7471-1.1412,0.7471-1.9111V10.4187
											C53.2279,9.6572,52.8573,9.0006,52.3518,8.464z"/>
									</defs>
									<clipPath id="SVGID_8_">
										<use xlink:href="#SVGID_7_"  style="overflow:visible;"/>
									</clipPath>
									
										<linearGradient id="SVGID_9_" gradientUnits="userSpaceOnUse" x1="332.0891" y1="-607.6052" x2="411.5483" y2="-607.6052" gradientTransform="matrix(1 0 0 -1 -312 -588.5059)">
										<stop  offset="0" style="stop-color:#FD7608"/>
										<stop  offset="0.5293" style="stop-color:#FD2940"/>
										<stop  offset="0.8306" style="stop-color:#FD025E"/>
									</linearGradient>
									<path style="clip-path:url(#SVGID_8_);fill:url(#SVGID_9_);" d="M98.6442,12.9004
										c-0.6025-1.3562-1.4135-2.5527-2.4303-3.5695c-1.0174-1.0174-2.2134-1.8271-3.5702-2.4108
										c-1.3653-0.594-2.797-0.8852-4.3134-0.8852c-1.5828,0.0567-3.0523,0.3863-4.4345,1.0064
										c-1.375,0.6025-2.5618,1.403-3.5695,2.4108c-1.0083,1.0076-1.79,2.1762-2.3645,3.5233
										c-0.54,1.265-0.8123,2.6172-0.8442,4.0561h-0.5641c-0.0137-1.5021-0.2912-2.924-0.852-4.247
										c-0.5654-1.3562-1.3653-2.5527-2.3827-3.5701c-1.0168-1.0168-2.2134-1.8265-3.5695-2.4101
										c-1.3659-0.594-2.8159-0.8858-4.3603-0.8858c-1.4786,0-2.8921,0.3022-4.2391,0.9047s-2.5338,1.4129-3.5695,2.4303
										s-1.8558,2.2134-2.4772,3.5695c-0.5973,1.334-0.9035,2.7319-0.9178,4.2085h-0.8917v-6.6128
										c0-0.7615-0.2338-1.4181-0.7706-1.9548c-0.4527-0.4592-0.9653-0.71-1.592-0.7803V5.5588
										c0.6755-0.0658,1.2702-0.3485,1.773-0.8754c0.5745-0.6032,0.8572-1.3105,0.8572-2.1105
										c0-0.8012-0.282-1.5073-0.8572-2.1098c-0.5739-0.6025-1.2624-0.9047-2.0622-0.9047c-0.8005,0-1.5073,0.2638-2.1098,0.8298
										c-0.6032,0.5654-0.9236,1.2441-0.9517,2.044c0,0.9894,0.2827,1.7613,0.8572,2.298
										c0.4781,0.4468,1.0735,0.7132,1.7737,0.8103v2.1528c-0.6455,0.0866-1.2174,0.3185-1.7164,0.7276
										c-0.5836,0.4846-0.9595,1.0989-0.9595,1.8329v6.7776h-1.1783v-3.1064c0-1.0878-0.2123-2.1209-0.6553-3.0894
										c-0.4423-0.9692-1.0331-1.7991-1.7704-2.4999c-0.7478-0.7016-1.6056-1.2546-2.5925-1.6604
										c-0.9777-0.4065-2.0017-0.609-3.0621-0.609c-1.9372,0-3.634,0.5895-5.082,1.7711
										c-0.7185-0.6006-1.5118-1.0526-2.3795-1.3379c-0.867-0.2853-1.7528-0.4332-2.6569-0.4332
										c-1.1158,0-2.1671,0.2117-3.137,0.6267c-0.9868,0.4247-1.8356,0.996-2.5645,1.7059
										c-0.7289,0.7106-1.3001,1.5503-1.7248,2.4999c-0.4247,0.951-0.637,1.9561-0.637,3.0165v11.171
										c-0.0274,0.3967,0.0365,0.7739,0.2032,1.134c0.1654,0.3602,0.3784,0.6735,0.6553,0.9503
										c0.2677,0.2768,0.5908,0.4892,0.9497,0.6364c0.3609,0.157,0.7562,0.2306,1.1809,0.2306
										c0.7843,0,1.4571-0.2677,2.0199-0.7934c0.5628-0.5263,0.8676-1.1529,0.9321-1.8818V14.0996
										c0.028-0.5999,0.2488-1.0976,0.6553-1.4942c0.4058-0.3967,0.9035-0.5902,1.4754-0.5902
										c0.5172,0,0.9881,0.1941,1.4115,0.5726c0.424,0.3785,0.6546,0.867,0.6826,1.476v5.6259
										c0,0.7563,0.2951,1.4024,0.9035,1.928c0.6006,0.525,1.2826,0.7934,2.0388,0.7934c0.8214,0,1.5229-0.2951,2.1124-0.8676
										c0.5908-0.5719,0.8859-1.2636,0.8859-2.0844v-5.3953c0-0.6637,0.213-1.1718,0.6553-1.5222
										c0.4345-0.3491,0.9139-0.525,1.4304-0.525c0.6084,0,1.1152,0.1928,1.5216,0.5902
										c0.4058,0.3869,0.6084,0.8754,0.6084,1.4473v11.0407c0,0.7843,0.2964,1.476,0.8865,2.0662
										c0.5895,0.5902,1.2812,0.8858,2.0655,0.8858s1.476-0.2768,2.0844-0.8207c0.5993-0.5445,0.9035-1.1803,0.9035-1.9092
										v-8.0601h1.1783v8.3929c0,0.822,0.484,1.4617,1.0402,1.9111c0.5654,0.4586,1.2552,0.6839,2.0557,0.6839
										c0.8943-0.0521,1.4728-0.3374,2.0004-0.8481c0.527-0.5107,0.6624-1.1418,0.6624-1.9111v-8.2288h0.8911
										c0.0143,1.5913,0.2912,3.0602,0.8338,4.4013c0.555,1.3744,1.3275,2.5521,2.3163,3.5415
										c0.9803,0.9881,2.1671,1.7606,3.5422,2.3169c1.3744,0.5563,2.8817,0.8383,4.5205,0.8383
										c1.2995,0,2.3365-0.1036,3.1272-0.3205s1.4884-0.4996,2.1098-0.8383v0.0469c0.2169,0.867-0.0182,1.8082-0.697,2.8256
										c-0.2729,0.3394-0.6501,0.5367-1.1112,0.6032h-3.4282c-0.9321,0.0273-1.7997,0.1694-2.5996,0.4143
										c-1.7893,0.5276-3.1552,1.375-4.0782,2.5521c-0.5276,0.5843-0.7634,1.2715-0.7159,2.0629
										c0.0469,0.7914,0.3674,1.4597,0.951,2.016c0.6214,0.6116,1.3568,0.923,2.2042,0.923c0.8481,0,1.5828-0.301,2.2042-0.8852
										c0.5934-0.583,1.2715-0.9035,2.0434-0.9692h1.4767v0.0169h0.2638h1.5737c1.1112-0.0573,2.1476-0.3114,3.1083-0.7634
										c0.951-0.4423,1.7802-1.0357,2.4772-1.7802c0.6976-0.7445,1.2526-1.648,1.6675-2.713
										c0.4234-1.0735,0.6116-2.0531,0.5836-2.9481c0-2.7214-0.4514-4.6808-1.347-5.8858
										c0.8794-1.5822,1.3281-3.4015,1.3444-5.4552h0.5511c0,0.0169-0.0026,0.0332-0.0026,0.0508
										c0,1.6004,0.3009,3.0891,0.8852,4.4456c0.583,1.3562,1.3933,2.5338,2.4107,3.5409c1.0174,1.0083,2.2134,1.79,3.5695,2.3463
										c1.3659,0.5566,2.8165,0.838,4.3609,0.838c1.5828,0,3.0517-0.3003,4.4078-0.8846c1.3562-0.583,2.5338-1.3939,3.5422-2.411
										c0.9986-1.0174,1.7984-2.1942,2.3827-3.5415c0.5934-1.347,0.8846-2.7885,0.8846-4.3329
										C99.5489,15.726,99.2467,14.2572,98.6442,12.9004z M60.6418,15.1965c0.2925-0.6208,0.6781-1.1673,1.1588-1.6473
										c0.4794-0.4807,1.0266-0.867,1.648-1.1588c0.6214-0.2918,1.2715-0.443,1.9496-0.443c0.6781,0,1.3379,0.1316,1.9691,0.4234
										c0.6318,0.2729,1.1868,0.6501,1.6675,1.1112c0.4807,0.4703,0.867,1.0161,1.1588,1.648
										c0.2755,0.5973,0.4208,1.237,0.4364,1.9014H60.2054C60.2217,16.3951,60.3656,15.7827,60.6418,15.1965z M70.2404,19.1425
										c-0.2638,0.6136-0.6318,1.1777-1.093,1.6675c-0.4618,0.4905-1.0174,0.8768-1.6675,1.1595
										c-0.6409,0.2723-1.3386,0.4143-2.0818,0.4143c-0.7432,0-1.4317-0.1511-2.0622-0.443
										c-0.6403-0.2918-1.1868-0.6774-1.648-1.1581c-0.4716-0.4807-0.8292-1.037-1.093-1.6675
										c-0.2488-0.5966-0.3765-1.2194-0.3902-1.8583h10.4265C70.6176,17.9297,70.4899,18.5543,70.2404,19.1425z M93.1056,19.3158
										c-0.2729,0.6319-0.6507,1.1868-1.1119,1.6675c-0.4703,0.4794-1.0168,0.8572-1.648,1.1392
										c-0.6312,0.2729-1.3093,0.4149-2.0153,0.4149c-0.7165,0-1.3757-0.1329-1.9971-0.4149s-1.1673-0.6585-1.648-1.1392
										c-0.4801-0.4807-0.8572-1.037-1.1393-1.6675c-0.2729-0.6319-0.4149-1.3001-0.4149-2.0154
										c0-0.7438,0.1322-1.4324,0.4149-2.0629c0.282-0.6305,0.6585-1.1868,1.1393-1.648c0.4794-0.471,1.0266-0.8292,1.648-1.0924
										c0.6221-0.2638,1.2813-0.3961,1.9971-0.3961c1.4793,0.0652,2.7032,0.5934,3.6633,1.5815
										c0.9517,0.9894,1.4597,2.1951,1.5262,3.6177C93.5198,18.0072,93.3876,18.6853,93.1056,19.3158z"/>
								</g>
							</g>
						</g>
					</g>
				</g>
			</g>
		</g>
	</g>
	<g>
		<g>
			<g>
				<g>
					<g>
						<g>
							<g>
								<g>
									<defs>
										<path id="SVGID_10_" d="M48.3648,5.1719c0.5745,0.5367,1.3086,0.8292,2.2036,0.8572c0.8005,0,1.4877-0.3022,2.0629-0.9047
											c0.5745-0.6025,0.8566-1.3099,0.8566-2.1098c0-0.8012-0.282-1.5073-0.8566-2.1105C52.0567,0.3016,51.3689,0,50.5683,0
											c-0.7999,0-1.5073,0.2631-2.1098,0.8298c-0.6025,0.5654-0.923,1.2435-0.951,2.044
											C47.5075,3.8626,47.7896,4.6352,48.3648,5.1719z"/>
									</defs>
									<clipPath id="SVGID_11_">
										<use xlink:href="#SVGID_10_"  style="overflow:visible;"/>
									</clipPath>
									
										<linearGradient id="SVGID_12_" gradientUnits="userSpaceOnUse" x1="332.0159" y1="-608.0463" x2="411.4753" y2="-608.0463" gradientTransform="matrix(1 0 0 -1 -312 -588.5059)">
										<stop  offset="0" style="stop-color:#FD7608"/>
										<stop  offset="0.5293" style="stop-color:#FD2940"/>
										<stop  offset="0.8306" style="stop-color:#FD025E"/>
									</linearGradient>
									<path style="clip-path:url(#SVGID_11_);fill:url(#SVGID_12_);" d="M98.5706,13.342
										c-0.6025-1.3568-1.4128-2.5527-2.4303-3.5701c-1.0174-1.0168-2.2134-1.8265-3.5695-2.4108
										c-1.3659-0.5934-2.7976-0.8852-4.314-0.8852c-1.5828,0.0573-3.0517,0.3869-4.4345,1.007
										c-1.375,0.6018-2.5618,1.4024-3.5695,2.4101c-1.0083,1.0083-1.7893,2.1769-2.3645,3.5239
										c-0.54,1.265-0.8123,2.6166-0.8442,4.0555h-0.5641c-0.0137-1.5014-0.2912-2.924-0.8513-4.247
										c-0.5654-1.3562-1.3659-2.5521-2.3834-3.5695c-1.0168-1.0174-2.2134-1.8265-3.5695-2.4108
										C68.3098,6.6518,66.8598,6.36,65.3148,6.36c-1.478,0-2.8914,0.3022-4.2385,0.9047
										c-1.3464,0.6025-2.5332,1.4129-3.5695,2.4303c-1.0357,1.0174-1.8558,2.2134-2.4772,3.5695
										c-0.5973,1.334-0.9028,2.7312-0.9171,4.2079h-0.8924v-6.6128c0-0.7608-0.2332-1.4181-0.7699-1.9541
										c-0.4534-0.4592-0.966-0.71-1.5926-0.781V6.0004c0.6755-0.0658,1.2702-0.3491,1.773-0.8761
										c0.5752-0.6025,0.8572-1.3099,0.8572-2.1098c0-0.8012-0.282-1.5073-0.8572-2.1105
										c-0.5739-0.6025-1.2617-0.9041-2.0622-0.9041s-1.5073,0.2631-2.1098,0.8298c-0.6032,0.5654-0.9236,1.2435-0.951,2.044
										c0,0.9888,0.282,1.7613,0.8566,2.298c0.4788,0.4462,1.0735,0.7126,1.7737,0.8097v2.1528
										c-0.6455,0.0866-1.2168,0.3192-1.7164,0.7276c-0.5836,0.4852-0.9595,1.0989-0.9595,1.8336v6.7769h-1.1783v-3.1058
										c0-1.0884-0.2123-2.1209-0.6553-3.0901c-0.4423-0.9686-1.0331-1.7984-1.7704-2.4999
										c-0.7478-0.7009-1.6056-1.2546-2.5925-1.6604c-0.9777-0.4058-2.0017-0.609-3.0621-0.609
										c-1.9372,0-3.634,0.5902-5.082,1.7711c-0.7191-0.5999-1.5125-1.0519-2.3795-1.3373
										c-0.867-0.2859-1.7528-0.4338-2.6569-0.4338c-1.1165,0-2.1671,0.2124-3.137,0.6267
										c-0.9868,0.4247-1.8356,0.9966-2.5645,1.7066s-1.3001,1.5496-1.7248,2.4999c-0.4247,0.9503-0.6364,1.9551-0.6364,3.0159
										v11.1707c-0.028,0.3967,0.0365,0.7741,0.2019,1.135c0.1668,0.3596,0.3791,0.6735,0.6553,0.9493
										c0.2684,0.2775,0.5914,0.4902,0.951,0.6374c0.3596,0.1563,0.7556,0.2303,1.1803,0.2303
										c0.7843,0,1.4578-0.2677,2.0206-0.7934c0.5628-0.5263,0.867-1.1529,0.9315-1.8818V14.5412
										c0.028-0.6006,0.2488-1.0982,0.6553-1.4942c0.4058-0.3973,0.9035-0.5902,1.476-0.5902
										c0.5165,0,0.9875,0.1941,1.4109,0.5719c0.424,0.3778,0.6546,0.8676,0.6826,1.476v5.6265
										c0,0.7556,0.2951,1.4018,0.9035,1.9274c0.6006,0.5257,1.2826,0.7934,2.0388,0.7934c0.8214,0,1.5229-0.2951,2.1124-0.867
										c0.5914-0.5719,0.8859-1.2636,0.8859-2.0844v-5.3959c0-0.6637,0.213-1.1712,0.6553-1.5216
										c0.4345-0.3498,0.9139-0.525,1.4304-0.525c0.6084,0,1.1152,0.1928,1.5216,0.5895c0.4058,0.3876,0.6084,0.8761,0.6084,1.448
										v11.0408c0,0.7836,0.2964,1.4753,0.8859,2.0655c0.5901,0.5908,1.2819,0.8858,2.0662,0.8858s1.476-0.2768,2.0844-0.8207
										c0.5993-0.5439,0.9041-1.1797,0.9041-1.9092v-8.0601h1.1777v8.3936c0,0.8214,0.4846,1.4617,1.0402,1.9111
										c0.5654,0.4586,1.2552,0.6839,2.0557,0.6839c0.8943-0.0528,1.4728-0.3374,2.0004-0.8481
										c0.527-0.5107,0.6624-1.1418,0.6624-1.9118v-8.2288h0.8911c0.0137,1.5919,0.2912,3.0608,0.8331,4.402
										c0.5556,1.3744,1.3275,2.5521,2.3169,3.5409c0.9803,0.9888,2.1671,1.7613,3.5415,2.3176
										c1.375,0.5556,2.8823,0.8377,4.5212,0.8377c1.2995,0,2.3365-0.1029,3.1272-0.3205
										c0.7908-0.2162,1.4884-0.4989,2.1098-0.8377v0.0469c0.2169,0.8663-0.0189,1.8082-0.697,2.8256
										c-0.2729,0.3387-0.6501,0.5367-1.1112,0.6032h-3.4282c-0.9321,0.0273-1.7997,0.1694-2.5996,0.4143
										c-1.7893,0.5269-3.1552,1.3744-4.0782,2.5521c-0.5276,0.5843-0.7634,1.2715-0.7159,2.0622
										c0.0469,0.7921,0.3674,1.4604,0.9517,2.0166c0.6208,0.6116,1.3562,0.9223,2.2036,0.9223s1.5828-0.301,2.2042-0.8846
										c0.5934-0.5836,1.2715-0.9041,2.0434-0.9699h1.4773v0.0169h0.2632h1.5737c1.1112-0.0567,2.1482-0.3107,3.1083-0.7628
										c0.951-0.443,1.7802-1.0357,2.4772-1.7808c0.6976-0.7438,1.2526-1.648,1.6675-2.7123
										c0.4234-1.0741,0.6116-2.0531,0.5836-2.9481c0-2.7221-0.4514-4.6808-1.3464-5.8865
										c0.8787-1.5822,1.3275-3.4008,1.3438-5.4552h0.5511c0,0.0169-0.0026,0.0339-0.0026,0.0508
										c0,1.6011,0.3009,3.0888,0.8852,4.4456c0.583,1.3562,1.3939,2.5338,2.4107,3.5415c1.0174,1.0083,2.214,1.79,3.5702,2.3456
										c1.3653,0.5563,2.8159,0.8383,4.3603,0.8383c1.5828,0,3.0517-0.301,4.4085-0.8846
										c1.3562-0.5836,2.5332-1.3939,3.5415-2.4114c0.9986-1.0174,1.7984-2.1944,2.3827-3.5415
										c0.5934-1.347,0.8852-2.7879,0.8852-4.3323C99.4753,16.1671,99.1731,14.6982,98.5706,13.342z M60.5682,15.6381
										c0.2925-0.6214,0.6781-1.1673,1.1588-1.648c0.4794-0.4807,1.0266-0.867,1.648-1.1581
										c0.6214-0.2918,1.2715-0.443,1.9496-0.443s1.3379,0.1316,1.9691,0.4234c0.6318,0.2723,1.1868,0.6501,1.6675,1.1112
										c0.4807,0.4703,0.867,1.0161,1.1588,1.648c0.2755,0.5966,0.4208,1.2363,0.4364,1.9007H60.1318
										C60.1481,16.8367,60.2927,16.2244,60.5682,15.6381z M70.1668,19.5841c-0.2638,0.6136-0.6318,1.1777-1.093,1.6675
										c-0.4618,0.4898-1.0168,0.8768-1.6675,1.1595c-0.6403,0.2723-1.3386,0.4143-2.0818,0.4143s-1.4317-0.1511-2.0622-0.443
										c-0.6403-0.2918-1.1868-0.6774-1.648-1.1581c-0.4716-0.4807-0.8292-1.037-1.093-1.6675
										c-0.2488-0.5966-0.3765-1.2194-0.3902-1.8583H70.557C70.544,18.3713,70.4163,18.996,70.1668,19.5841z M93.0319,19.7574
										c-0.2736,0.6319-0.6507,1.1868-1.1119,1.6675c-0.4703,0.4794-1.0168,0.8572-1.648,1.1392
										c-0.6312,0.2729-1.3093,0.4149-2.016,0.4149c-0.7159,0-1.3757-0.1329-1.9971-0.4149
										c-0.6214-0.2821-1.1673-0.6585-1.648-1.1392c-0.4794-0.4807-0.8566-1.037-1.1393-1.6675
										c-0.2729-0.6319-0.4143-1.3001-0.4143-2.0154c0-0.7438,0.1322-1.4324,0.4143-2.0629
										c0.2827-0.6305,0.6585-1.1868,1.1393-1.648c0.4801-0.471,1.0266-0.8292,1.648-1.0924
										c0.6227-0.2638,1.2819-0.3961,1.9971-0.3961c1.4799,0.0652,2.7038,0.5934,3.664,1.5815
										c0.951,0.9894,1.4597,2.1951,1.5262,3.6177C93.4462,18.4482,93.314,19.1269,93.0319,19.7574z"/>
								</g>
							</g>
						</g>
					</g>
				</g>
			</g>
		</g>
	</g>
	<g>
		<g>
			<g>
				<g>
					<g>
						<g>
							<g>
								<g>
									<defs>
										<path id="SVGID_13_" d="M66.8865,36.7856h-1.478c-0.7725,0.0664-1.4506,0.3869-2.044,0.9692
											c-0.6214,0.585-1.3562,0.8852-2.2042,0.8852c-0.8474,0-1.5828-0.3107-2.2036-0.923
											c-0.5843-0.5563-0.9048-1.2246-0.9517-2.016c-0.0469-0.7907,0.1882-1.478,0.7159-2.0622
											c0.923-1.1777,2.2889-2.0251,4.0782-2.5527c0.8005-0.2449,1.6675-0.3863,2.5996-0.4143h3.4282
											c0.4612-0.0664,0.8383-0.2638,1.1112-0.6032c0.6787-1.0168,0.9139-1.9587,0.697-2.825V27.196
											c-0.6214,0.3387-1.319,0.6214-2.1098,0.8383c-0.7908,0.2169-1.8278,0.3205-3.1272,0.3205
											c-1.6382,0-3.1455-0.2821-4.5205-0.8383c-1.375-0.5562-2.5618-1.3288-3.5422-2.3169
											c-0.9888-0.9894-1.7613-2.1671-2.3163-3.5415c-0.5563-1.375-0.8383-2.8823-0.8383-4.5205
											c0-1.517,0.3107-2.9488,0.923-4.3147c0.6214-1.3562,1.4408-2.5521,2.4772-3.5695
											c1.0357-1.0175,2.2225-1.8277,3.5695-2.4303c1.347-0.6028,2.7599-0.9047,4.2385-0.9047
											c1.5444,0,2.995,0.2918,4.3609,0.8852c1.3562,0.5843,2.5521,1.3933,3.5695,2.4108s1.8173,2.2134,2.3827,3.5695
											c0.5752,1.3568,0.8572,2.8166,0.8572,4.3609c0,2.1007-0.452,3.9564-1.347,5.5673c0.895,1.205,1.347,3.1643,1.347,5.8858
											c0.028,0.895-0.1602,1.8746-0.5843,2.9481c-0.4143,1.065-0.9692,1.9685-1.6675,2.713
											c-0.6963,0.7445-1.5255,1.3379-2.4765,1.7802c-0.9608,0.452-1.9971,0.7061-3.109,0.7634H67.149h-0.2638v-0.0169h0.0013
											V36.7856z M65.3981,11.9475c-0.6781,0-1.3281,0.1511-1.9496,0.443c-0.6214,0.2918-1.1686,0.6781-1.648,1.1581
											c-0.4807,0.4807-0.8663,1.0266-1.1588,1.648c-0.2925,0.6214-0.4429,1.2721-0.4429,1.9502
											c0,0.6781,0.1329,1.3379,0.396,1.9685c0.2638,0.6305,0.6214,1.1868,1.093,1.6675
											c0.4612,0.4807,1.0077,0.8663,1.648,1.1581c0.6305,0.2918,1.319,0.443,2.0622,0.443c0.7432,0,1.4408-0.142,2.0818-0.4143
											c0.6501-0.2827,1.2057-0.6696,1.6675-1.1595c0.4612-0.4898,0.8292-1.0539,1.093-1.6675
											c0.2632-0.6214,0.3954-1.2806,0.3954-1.9971c0-0.7061-0.1505-1.3842-0.4423-2.0154
											c-0.2918-0.6319-0.6781-1.1777-1.1588-1.648c-0.4807-0.4612-1.0357-0.839-1.6675-1.1112
											C66.7361,12.0791,66.0762,11.9475,65.3981,11.9475z"/>
									</defs>
									<clipPath id="SVGID_14_">
										<use xlink:href="#SVGID_13_"  style="overflow:visible;"/>
									</clipPath>
									
										<linearGradient id="SVGID_15_" gradientUnits="userSpaceOnUse" x1="332.0891" y1="-607.6052" x2="411.5483" y2="-607.6052" gradientTransform="matrix(1 0 0 -1 -312 -588.5059)">
										<stop  offset="0" style="stop-color:#FD7608"/>
										<stop  offset="0.5293" style="stop-color:#FD2940"/>
										<stop  offset="0.8306" style="stop-color:#FD025E"/>
									</linearGradient>
									<path style="clip-path:url(#SVGID_14_);fill:url(#SVGID_15_);" d="M98.6442,12.9004
										c-0.6025-1.3562-1.4135-2.5527-2.4303-3.5695c-1.0174-1.0174-2.2134-1.8271-3.5702-2.4108
										c-1.3653-0.594-2.797-0.8852-4.3134-0.8852c-1.5828,0.0567-3.0523,0.3863-4.4345,1.0064
										c-1.375,0.6025-2.5618,1.403-3.5695,2.4108c-1.0083,1.0076-1.79,2.1762-2.3645,3.5233
										c-0.54,1.265-0.8123,2.6172-0.8442,4.0561h-0.5641c-0.0137-1.5021-0.2912-2.924-0.852-4.247
										c-0.5654-1.3562-1.3653-2.5527-2.3827-3.5701c-1.0168-1.0168-2.2134-1.8265-3.5695-2.4101
										c-1.3659-0.594-2.8159-0.8858-4.3603-0.8858c-1.4786,0-2.8921,0.3022-4.2391,0.9047s-2.5338,1.4129-3.5695,2.4303
										s-1.8558,2.2134-2.4772,3.5695c-0.5973,1.334-0.9035,2.7319-0.9178,4.2085h-0.8917v-6.6128
										c0-0.7615-0.2338-1.4181-0.7706-1.9548c-0.4527-0.4592-0.9653-0.71-1.592-0.7803V5.5588
										c0.6755-0.0658,1.2702-0.3485,1.773-0.8754c0.5745-0.6032,0.8572-1.3105,0.8572-2.1105
										c0-0.8012-0.282-1.5073-0.8572-2.1098c-0.5739-0.6025-1.2624-0.9047-2.0622-0.9047c-0.8005,0-1.5073,0.2638-2.1098,0.8298
										c-0.6032,0.5654-0.9236,1.2441-0.9517,2.044c0,0.9894,0.2827,1.7613,0.8572,2.298
										c0.4781,0.4468,1.0735,0.7132,1.7737,0.8103v2.1528c-0.6455,0.0866-1.2174,0.3185-1.7164,0.7276
										c-0.5836,0.4846-0.9595,1.0989-0.9595,1.8329v6.7776h-1.1783v-3.1064c0-1.0878-0.2123-2.1209-0.6553-3.0894
										c-0.4423-0.9692-1.0331-1.7991-1.7704-2.4999c-0.7478-0.7016-1.6056-1.2546-2.5925-1.6604
										c-0.9777-0.4065-2.0017-0.609-3.0621-0.609c-1.9372,0-3.634,0.5895-5.082,1.7711
										c-0.7185-0.6006-1.5118-1.0526-2.3795-1.3379c-0.867-0.2853-1.7528-0.4332-2.6569-0.4332
										c-1.1158,0-2.1671,0.2117-3.137,0.6267c-0.9868,0.4247-1.8356,0.996-2.5645,1.7059
										c-0.7289,0.7106-1.3001,1.5503-1.7248,2.4999c-0.4247,0.951-0.637,1.9561-0.637,3.0165v11.171
										c-0.0274,0.3967,0.0365,0.7739,0.2032,1.134c0.1654,0.3602,0.3784,0.6735,0.6553,0.9503
										c0.2677,0.2768,0.5908,0.4892,0.9497,0.6364c0.3609,0.157,0.7562,0.2306,1.1809,0.2306
										c0.7843,0,1.4571-0.2677,2.0199-0.7934c0.5628-0.5263,0.8676-1.1529,0.9321-1.8818V14.0996
										c0.028-0.5999,0.2488-1.0976,0.6553-1.4942c0.4058-0.3967,0.9035-0.5902,1.4754-0.5902
										c0.5172,0,0.9881,0.1941,1.4115,0.5726c0.424,0.3785,0.6546,0.867,0.6826,1.476v5.6259
										c0,0.7563,0.2951,1.4024,0.9035,1.928c0.6006,0.525,1.2826,0.7934,2.0388,0.7934c0.8214,0,1.5229-0.2951,2.1124-0.8676
										c0.5908-0.5719,0.8859-1.2636,0.8859-2.0844v-5.3953c0-0.6637,0.213-1.1718,0.6553-1.5222
										c0.4345-0.3491,0.9139-0.525,1.4304-0.525c0.6084,0,1.1152,0.1928,1.5216,0.5902
										c0.4058,0.3869,0.6084,0.8754,0.6084,1.4473v11.0407c0,0.7843,0.2964,1.476,0.8865,2.0662
										c0.5895,0.5902,1.2812,0.8858,2.0655,0.8858s1.476-0.2768,2.0844-0.8207c0.5993-0.5445,0.9035-1.1803,0.9035-1.9092
										v-8.0601h1.1783v8.3929c0,0.822,0.484,1.4617,1.0402,1.9111c0.5654,0.4586,1.2552,0.6839,2.0557,0.6839
										c0.8943-0.0521,1.4728-0.3374,2.0004-0.8481c0.527-0.5107,0.6624-1.1418,0.6624-1.9111v-8.2288h0.8911
										c0.0143,1.5913,0.2912,3.0602,0.8338,4.4013c0.555,1.3744,1.3275,2.5521,2.3163,3.5415
										c0.9803,0.9881,2.1671,1.7606,3.5422,2.3169c1.3744,0.5563,2.8817,0.8383,4.5205,0.8383
										c1.2995,0,2.3365-0.1036,3.1272-0.3205s1.4884-0.4996,2.1098-0.8383v0.0469c0.2169,0.867-0.0182,1.8082-0.697,2.8256
										c-0.2729,0.3394-0.6501,0.5367-1.1112,0.6032h-3.4282c-0.9321,0.0273-1.7997,0.1694-2.5996,0.4143
										c-1.7893,0.5276-3.1552,1.375-4.0782,2.5521c-0.5276,0.5843-0.7634,1.2715-0.7159,2.0629
										c0.0469,0.7914,0.3674,1.4597,0.951,2.016c0.6214,0.6116,1.3568,0.923,2.2042,0.923c0.8481,0,1.5828-0.301,2.2042-0.8852
										c0.5934-0.583,1.2715-0.9035,2.0434-0.9692h1.4767v0.0169h0.2638h1.5737c1.1112-0.0573,2.1476-0.3114,3.1083-0.7634
										c0.951-0.4423,1.7802-1.0357,2.4772-1.7802c0.6976-0.7445,1.2526-1.648,1.6675-2.713
										c0.4234-1.0735,0.6116-2.0531,0.5836-2.9481c0-2.7214-0.4514-4.6808-1.347-5.8858
										c0.8794-1.5822,1.3281-3.4015,1.3444-5.4552h0.5511c0,0.0169-0.0026,0.0332-0.0026,0.0508
										c0,1.6004,0.3009,3.0891,0.8852,4.4456c0.583,1.3562,1.3933,2.5338,2.4107,3.5409c1.0174,1.0083,2.2134,1.79,3.5695,2.3463
										c1.3659,0.5566,2.8165,0.838,4.3609,0.838c1.5828,0,3.0517-0.3003,4.4078-0.8846c1.3562-0.583,2.5338-1.3939,3.5422-2.411
										c0.9986-1.0174,1.7984-2.1942,2.3827-3.5415c0.5934-1.347,0.8846-2.7885,0.8846-4.3329
										C99.5489,15.726,99.2467,14.2572,98.6442,12.9004z M60.6418,15.1965c0.2925-0.6208,0.6781-1.1673,1.1588-1.6473
										c0.4794-0.4807,1.0266-0.867,1.648-1.1588c0.6214-0.2918,1.2715-0.443,1.9496-0.443c0.6781,0,1.3379,0.1316,1.9691,0.4234
										c0.6318,0.2729,1.1868,0.6501,1.6675,1.1112c0.4807,0.4703,0.867,1.0161,1.1588,1.648
										c0.2755,0.5973,0.4208,1.237,0.4364,1.9014H60.2054C60.2217,16.3951,60.3656,15.7827,60.6418,15.1965z M70.2404,19.1425
										c-0.2638,0.6136-0.6318,1.1777-1.093,1.6675c-0.4618,0.4905-1.0174,0.8768-1.6675,1.1595
										c-0.6409,0.2723-1.3386,0.4143-2.0818,0.4143c-0.7432,0-1.4317-0.1511-2.0622-0.443
										c-0.6403-0.2918-1.1868-0.6774-1.648-1.1581c-0.4716-0.4807-0.8292-1.037-1.093-1.6675
										c-0.2488-0.5966-0.3765-1.2194-0.3902-1.8583h10.4265C70.6176,17.9297,70.4899,18.5543,70.2404,19.1425z M93.1056,19.3158
										c-0.2729,0.6319-0.6507,1.1868-1.1119,1.6675c-0.4703,0.4794-1.0168,0.8572-1.648,1.1392
										c-0.6312,0.2729-1.3093,0.4149-2.0153,0.4149c-0.7165,0-1.3757-0.1329-1.9971-0.4149s-1.1673-0.6585-1.648-1.1392
										c-0.4801-0.4807-0.8572-1.037-1.1393-1.6675c-0.2729-0.6319-0.4149-1.3001-0.4149-2.0154
										c0-0.7438,0.1322-1.4324,0.4149-2.0629c0.282-0.6305,0.6585-1.1868,1.1393-1.648c0.4794-0.471,1.0266-0.8292,1.648-1.0924
										c0.6221-0.2638,1.2813-0.3961,1.9971-0.3961c1.4793,0.0652,2.7032,0.5934,3.6633,1.5815
										c0.9517,0.9894,1.4597,2.1951,1.5262,3.6177C93.5198,18.0072,93.3876,18.6853,93.1056,19.3158z"/>
								</g>
							</g>
						</g>
					</g>
				</g>
			</g>
		</g>
	</g>
	<g id="seguros_1_">
		<path style="fill:#FD0C51;" d="M79.9511,34.4393c0.0756,0.1505,0.1882,0.2541,0.3296,0.3387
			c0.1511,0.0756,0.3016,0.1133,0.4612,0.1133c0.0756,0,0.1511-0.0097,0.2267-0.0378c0.0756-0.0273,0.1413-0.0567,0.1974-0.1029
			c0.0567-0.0482,0.1036-0.0944,0.1413-0.1602c0.0378-0.0664,0.0573-0.1329,0.0573-0.2071c0-0.1225-0.0378-0.2267-0.1225-0.2827
			c-0.0847-0.056-0.1785-0.1121-0.3016-0.1505c-0.1218-0.0372-0.2449-0.0658-0.396-0.0944
			c-0.1505-0.0273-0.2729-0.0658-0.3954-0.1218c-0.1225-0.0567-0.2176-0.1322-0.3022-0.226
			c-0.0847-0.0944-0.1218-0.2267-0.1218-0.4051c0-0.1329,0.028-0.2547,0.0847-0.3485c0.0567-0.0944,0.1322-0.1792,0.2169-0.2456
			c0.0847-0.0658,0.1882-0.1121,0.3022-0.1413c0.1133-0.0287,0.226-0.0476,0.3387-0.0476c0.2267,0,0.424,0.0378,0.5843,0.1225
			c0.1602,0.0847,0.2912,0.2169,0.3863,0.3961l-0.3205,0.1876c-0.0658-0.1218-0.1505-0.226-0.254-0.2918
			c-0.1036-0.0652-0.2358-0.0938-0.396-0.0938c-0.0658,0-0.1322,0.0091-0.1974,0.028c-0.0664,0.0189-0.1322,0.0476-0.1882,0.0847
			c-0.0567,0.0372-0.1036,0.0847-0.1413,0.1322c-0.0378,0.0567-0.0567,0.1225-0.0567,0.1882c0,0.1218,0.0371,0.2169,0.1218,0.2729
			c0.0847,0.056,0.1785,0.1029,0.3016,0.1413c0.1225,0.0372,0.2449,0.0658,0.396,0.0853c0.1413,0.0273,0.2729,0.0658,0.396,0.1121
			c0.1218,0.0573,0.2169,0.1329,0.3016,0.2358c0.0847,0.1036,0.1218,0.2449,0.1218,0.4332c0,0.1413-0.028,0.2638-0.0756,0.3667
			c-0.0567,0.1036-0.1218,0.198-0.2169,0.2638c-0.0938,0.0756-0.1974,0.1218-0.3205,0.1602
			c-0.1218,0.0372-0.2449,0.0567-0.3758,0.0567c-0.2358,0-0.452-0.0469-0.6507-0.1322c-0.1974-0.0938-0.3485-0.2351-0.4514-0.424
			L79.9511,34.4393z"/>
		<path style="fill:#FD0C51;" d="M84.8957,34.6178c-0.142,0.2071-0.3114,0.3582-0.5178,0.452
			c-0.2071,0.0938-0.424,0.1316-0.6787,0.1316c-0.2065,0-0.3954-0.0365-0.5745-0.1029c-0.1694-0.0756-0.3205-0.1693-0.4423-0.3022
			c-0.1218-0.1316-0.2169-0.2821-0.282-0.4612c-0.0664-0.1785-0.0945-0.3667-0.0945-0.5836c0-0.2071,0.0371-0.3961,0.1036-0.5745
			c0.0658-0.1792,0.1602-0.3296,0.282-0.452c0.1218-0.1322,0.2638-0.2267,0.4332-0.3022c0.1693-0.0756,0.3485-0.1121,0.5563-0.1121
			s0.3954,0.0365,0.5556,0.1121c0.1602,0.0756,0.2918,0.17,0.4058,0.2918c0.1127,0.1225,0.1876,0.2547,0.2449,0.4143
			c0.0567,0.1511,0.0847,0.3114,0.0847,0.4716v0.2449h-2.3072c0,0.0756,0.0182,0.1694,0.0469,0.2918
			c0.028,0.1133,0.0847,0.2266,0.1602,0.3387c0.0756,0.1133,0.1882,0.2071,0.3205,0.2827c0.1322,0.0756,0.3022,0.1225,0.5178,0.1225
			c0.1791,0,0.3583-0.0482,0.5276-0.1329c0.1694-0.0846,0.3016-0.2065,0.3954-0.3576L84.8957,34.6178z M84.6227,33.5346
			c0-0.1218-0.028-0.2358-0.0756-0.3485c-0.0475-0.1029-0.1127-0.1974-0.198-0.2827c-0.0847-0.0847-0.1876-0.1413-0.3016-0.1967
			c-0.1127-0.0482-0.2449-0.0756-0.3667-0.0756c-0.198,0-0.3583,0.0372-0.4807,0.1218c-0.1322,0.0756-0.2267,0.1693-0.3016,0.2729
			c-0.0756,0.1029-0.1322,0.2065-0.1602,0.3016c-0.028,0.0944-0.0475,0.1602-0.0475,0.1974h1.9307L84.6227,33.5346L84.6227,33.5346z
			"/>
		<path style="fill:#FD0C51;" d="M88.531,34.9565c0,0.3394-0.0476,0.6123-0.1505,0.8292c-0.1036,0.2065-0.2267,0.3765-0.3674,0.4905
			c-0.1505,0.1121-0.3107,0.1876-0.4807,0.2351c-0.1694,0.0372-0.3205,0.0567-0.4605,0.0567c-0.1407,0-0.2736-0.0091-0.4058-0.0372
			c-0.1322-0.028-0.254-0.0658-0.3758-0.1127c-0.1225-0.0476-0.2267-0.1127-0.3205-0.1785
			c-0.0945-0.0756-0.1791-0.1511-0.2547-0.2456l0.2821-0.2638c0.1225,0.1792,0.2827,0.3114,0.4716,0.3961
			c0.1882,0.0847,0.396,0.1225,0.6025,0.1225c0.1791,0,0.3394-0.0287,0.4612-0.0756c0.1225-0.0482,0.2267-0.1133,0.3114-0.1882
			c0.0847-0.0756,0.1413-0.1602,0.1882-0.2547c0.0469-0.0938,0.0756-0.1876,0.1029-0.2821
			c0.0189-0.0944,0.0378-0.1792,0.0378-0.2638c0-0.0846,0.0091-0.1511,0.0091-0.1974v-0.3765h-0.0091
			c-0.1036,0.17-0.2449,0.3016-0.4149,0.3961c-0.1785,0.0945-0.3863,0.1413-0.6214,0.1413c-0.1974,0-0.3954-0.0372-0.5745-0.1127
			c-0.1791-0.0755-0.3296-0.1792-0.4709-0.3016c-0.1329-0.1322-0.2358-0.2827-0.3114-0.452
			c-0.0756-0.1694-0.1127-0.3478-0.1127-0.5459c0-0.1974,0.0371-0.3765,0.1127-0.5459c0.0756-0.1694,0.1785-0.3205,0.3114-0.4423
			c0.1316-0.1218,0.2912-0.2261,0.4709-0.3016c0.1791-0.0756,0.3667-0.1133,0.5745-0.1133c0.2358,0,0.4429,0.0482,0.6214,0.142
			c0.1791,0.0938,0.3205,0.2267,0.4149,0.3961h0.0091v-0.4612h0.3576v2.5524H88.531V34.9565L88.531,34.9565z M88.1825,33.732
			c0-0.1511-0.028-0.2918-0.0847-0.4234c-0.0567-0.1329-0.1322-0.2449-0.2351-0.3491c-0.0944-0.0938-0.2176-0.1693-0.3485-0.2351
			c-0.1322-0.0567-0.2729-0.0853-0.424-0.0853c-0.1511,0-0.2918,0.0287-0.424,0.0853c-0.1322,0.0566-0.2449,0.1322-0.3485,0.2351
			c-0.0938,0.0945-0.1785,0.2176-0.2351,0.3491c-0.0573,0.1316-0.0853,0.2723-0.0853,0.4234c0,0.1511,0.028,0.2918,0.0853,0.424
			c0.0567,0.1322,0.1322,0.2449,0.2351,0.3485c0.0944,0.0938,0.2071,0.1785,0.3485,0.2358c0.1322,0.056,0.2729,0.0847,0.424,0.0847
			c0.1511,0,0.2918-0.0287,0.424-0.0847c0.1322-0.0573,0.2449-0.1329,0.3485-0.2358c0.0938-0.0944,0.1785-0.2071,0.2351-0.3485
			C88.1538,34.0244,88.1825,33.8831,88.1825,33.732z"/>
		<path style="fill:#FD0C51;" d="M91.7233,34.3638c0,0.0469,0,0.1127,0.0098,0.1876c0,0.0756,0.0091,0.1511,0.0091,0.2267
			s0.0091,0.142,0.0091,0.2071c0,0.0658,0.0098,0.1121,0.0098,0.1505h-0.3576c0-0.1036-0.0098-0.1974-0.0098-0.3016
			c0-0.0944-0.0091-0.1602-0.0189-0.1882h-0.0182c-0.0756,0.1505-0.1882,0.2821-0.3576,0.3863
			c-0.17,0.1133-0.3583,0.1602-0.5843,0.1602c-0.2169,0-0.3869-0.0372-0.5276-0.1029c-0.1413-0.0664-0.2449-0.1602-0.3205-0.2638
			c-0.0749-0.1127-0.1316-0.2358-0.1602-0.3765c-0.0274-0.1413-0.0371-0.2918-0.0371-0.4423V32.377h0.3576v1.6206
			c0,0.1121,0.0098,0.2162,0.0287,0.3205c0.0182,0.1029,0.0567,0.1967,0.1029,0.2821c0.0476,0.0847,0.1225,0.1505,0.2071,0.1974
			c0.0847,0.0476,0.2065,0.0756,0.3478,0.0756c0.1329,0,0.2547-0.0182,0.3674-0.0664c0.1127-0.0469,0.2169-0.1127,0.3016-0.2065
			c0.0853-0.0944,0.1511-0.2065,0.198-0.3485c0.0475-0.1413,0.0749-0.3016,0.0749-0.4989v-1.375h0.3583v1.9867h0.0098V34.3638
			L91.7233,34.3638z"/>
		<path style="fill:#FD0C51;" d="M92.703,33.1679c0-0.0482,0-0.1133-0.0091-0.1889c0-0.0756-0.0098-0.1505-0.0098-0.2261
			c0-0.0756-0.0091-0.1413-0.0091-0.2065c0-0.0664-0.0091-0.1133-0.0091-0.1511h0.3576c0,0.1036,0.0091,0.1974,0.0091,0.3022
			c0,0.0938,0.0098,0.1602,0.0189,0.1876c0.0938-0.1602,0.2071-0.2918,0.3485-0.3961c0.1413-0.1029,0.3205-0.1505,0.527-0.1505
			c0.0378,0,0.0664,0,0.1036,0.0091c0.0371,0.0097,0.0658,0.0097,0.1036,0.0189l-0.0378,0.3478
			c-0.0469-0.0182-0.0938-0.0273-0.1316-0.0273c-0.1511,0-0.2918,0.0273-0.4052,0.0756c-0.114,0.0469-0.2071,0.1218-0.2827,0.2065
			c-0.0756,0.0847-0.1322,0.1882-0.1602,0.3016c-0.0371,0.1133-0.0567,0.2449-0.0567,0.3765v1.4982h-0.3576L92.703,33.1679
			L92.703,33.1679z"/>
		<path style="fill:#FD0C51;" d="M94.4174,33.7606c0-0.2065,0.0371-0.4051,0.1036-0.5745c0.0756-0.1785,0.1694-0.3296,0.3016-0.4612
			c0.1218-0.1322,0.282-0.2267,0.4612-0.3016c0.1791-0.0756,0.3667-0.1036,0.5843-0.1036c0.2065,0,0.4052,0.0378,0.5745,0.1036
			c0.1785,0.0749,0.3296,0.1694,0.4612,0.3016c0.1322,0.1322,0.226,0.2827,0.3016,0.4612c0.0756,0.1792,0.1036,0.3674,0.1036,0.5745
			c0,0.2071-0.0371,0.4051-0.1036,0.5843c-0.0756,0.1792-0.1693,0.3296-0.3016,0.4612c-0.1322,0.1322-0.2827,0.226-0.4612,0.3016
			c-0.1791,0.0756-0.3674,0.1036-0.5745,0.1036c-0.2078,0-0.4052-0.0372-0.5843-0.1036c-0.1791-0.0756-0.3296-0.1693-0.4612-0.3016
			c-0.1218-0.1322-0.226-0.2821-0.3016-0.4612C94.4552,34.1651,94.4174,33.9769,94.4174,33.7606z M94.775,33.7606
			c0,0.1511,0.028,0.3022,0.0756,0.4338c0.0475,0.1316,0.1218,0.2541,0.2169,0.357c0.0938,0.1043,0.2065,0.1798,0.3485,0.2456
			c0.1322,0.0567,0.282,0.0847,0.4514,0.0847c0.17,0,0.3205-0.028,0.452-0.0847c0.1309-0.0567,0.2449-0.1413,0.3485-0.2456
			c0.0938-0.1029,0.1694-0.2162,0.2169-0.357c0.0476-0.142,0.0756-0.2827,0.0756-0.4338c0-0.1505-0.028-0.3016-0.0756-0.4325
			c-0.0475-0.1329-0.1225-0.2547-0.2169-0.3582c-0.0945-0.1029-0.2071-0.1785-0.3485-0.2449
			c-0.1322-0.0567-0.282-0.0847-0.452-0.0847c-0.1694,0-0.3205,0.028-0.4514,0.0847c-0.1322,0.0567-0.2449,0.142-0.3485,0.2449
			c-0.1036,0.1036-0.1694,0.2169-0.2169,0.3582C94.8037,33.4688,94.775,33.6101,94.775,33.7606z"/>
		<path style="fill:#FD0C51;" d="M98.1094,34.4393c0.0756,0.1505,0.1882,0.2541,0.3302,0.3387
			c0.1505,0.0756,0.3016,0.1133,0.4612,0.1133c0.0749,0,0.1505-0.0097,0.226-0.0378c0.0756-0.0273,0.1413-0.0567,0.1974-0.1029
			c0.0573-0.0482,0.1036-0.0944,0.142-0.1602c0.0371-0.0664,0.0567-0.1329,0.0567-0.2071c0-0.1225-0.0371-0.2267-0.1218-0.2827
			c-0.0853-0.056-0.1791-0.1121-0.3022-0.1505c-0.1218-0.0372-0.2449-0.0658-0.396-0.0944
			c-0.1413-0.0273-0.2723-0.0658-0.3954-0.1218c-0.1225-0.0567-0.2169-0.1322-0.3022-0.226
			c-0.0847-0.0944-0.1218-0.2267-0.1218-0.4051c0-0.1329,0.028-0.2547,0.0847-0.3485c0.0567-0.1036,0.1322-0.1792,0.2169-0.2456
			c0.0847-0.0658,0.1882-0.1121,0.3016-0.1413c0.114-0.0287,0.2267-0.0476,0.3394-0.0476c0.226,0,0.424,0.0378,0.5843,0.1225
			c0.1602,0.0847,0.2918,0.2169,0.3863,0.3961L99.476,33.026c-0.0658-0.1218-0.1505-0.226-0.254-0.2918
			c-0.1036-0.0652-0.2358-0.0938-0.396-0.0938c-0.0658,0-0.1322,0.0091-0.1974,0.028c-0.0664,0.0189-0.1322,0.0476-0.1882,0.0847
			c-0.056,0.0372-0.1036,0.0847-0.1413,0.1322c-0.0378,0.0567-0.0573,0.1225-0.0573,0.1882c0,0.1218,0.0378,0.2169,0.1225,0.2729
			c0.0847,0.0567,0.1785,0.1029,0.3016,0.1413c0.1218,0.0372,0.2449,0.0658,0.396,0.0853c0.1413,0.0273,0.2729,0.0658,0.3954,0.1121
			c0.1225,0.0573,0.2176,0.1329,0.3022,0.2358c0.0847,0.1036,0.1218,0.2449,0.1218,0.4332c0,0.1413-0.028,0.2638-0.0756,0.3667
			c-0.0567,0.1036-0.1218,0.198-0.2169,0.2638c-0.0938,0.0756-0.1974,0.1218-0.3205,0.1602
			c-0.1218,0.0372-0.2449,0.0567-0.3765,0.0567c-0.2358,0-0.4514-0.0469-0.6501-0.1322c-0.1974-0.0938-0.3485-0.2351-0.4514-0.424
			L98.1094,34.4393z"/>
	</g>
</g>
</svg>
