<?xml version="1.0" encoding="utf-8"?>
<!-- Generator: Adobe Illustrator 24.0.2, SVG Export Plug-In . SVG Version: 6.00 Build 0)  -->
<svg version="1.1" id="Capa_1" xmlns="http://www.w3.org/2000/svg" xmlns:xlink="http://www.w3.org/1999/xlink" x="0px" y="0px"
	 viewBox="0 0 119.97 38.64" style="enable-background:new 0 0 119.97 38.64;" xml:space="preserve">
<g>
	<path style="fill:#0042A1;" d="M-0.0716,7.6395C0.0295,7.3749,0.11,7.1122,0.2311,6.8602c0.394-0.8262,1.0493-1.4229,1.9585-1.4229
		c2.4824-0.0195,4.9961-0.1514,7.439,0.1729c4.6528,0.625,7.9434,5.4492,7.1265,10.0713c-0.8174,4.5635-4.3613,7.541-9.0034,7.541
		c-0.9092,0-1.8076,0-2.7661,0c0,1.5459,0.0098,3.0078,0,4.4824c0,0.3633-0.0107,0.7354-0.1016,1.0791
		c-0.2822,1.041-1.2705,1.7559-2.3418,1.7764c-1.0596,0.0195-1.9985-0.6465-2.3604-1.666
		c-0.0718-0.2002-0.1523-0.4131-0.2236-0.6152C-0.0716,21.3954-0.0716,14.5214-0.0716,7.6395z M4.9953,18.2167
		c1.0601,0,2.0488,0.0107,3.0278,0c1.9185-0.0195,3.5127-1.4238,3.8057-3.332c0.2827-1.8867-0.8379-3.8447-2.6948-4.249
		c-1.333-0.293-2.7461-0.2012-4.1387-0.2822C4.9953,13.0477,4.9953,15.5917,4.9953,18.2167z"/>
	<path style="fill:#0042A1;" d="M53.9992,7.163c1.3838-1.1602,2.9888-1.8369,4.8462-1.8457
		c4.0977-0.0313,7.498,3.2383,7.5703,7.3467c0.0391,2.7051,0.0186,5.4199,0.0098,8.127c-0.0098,1.4727-1.1016,2.5635-2.5137,2.5527
		c-1.4346-0.0107-2.4521-1.0693-2.4521-2.583c-0.0107-2.6045,0.0098-5.2188-0.0107-7.8232
		c-0.0098-1.3018-0.8271-2.3105-2.0596-2.5742c-1.0693-0.2324-2.2607,0.3926-2.7148,1.4727c-0.1318,0.3047-0.1816,0.668-0.1816,1
		c-0.0098,2.6436,0,5.3008-0.0098,7.9453c-0.0098,1.1094-0.5049,1.9561-1.5552,2.3809c-0.9888,0.3936-1.9067,0.2236-2.6846-0.5254
		c-0.5454-0.5146-0.7461-1.1807-0.7368-1.918c0.0103-2.3223,0.0103-4.6533,0-6.9746c0-0.4424,0-0.8877-0.061-1.332
		c-0.1509-1.1904-1.292-2.1084-2.5234-2.0781c-1.271,0.0293-2.3311,1.0596-2.4023,2.3613c-0.04,0.7666-0.0088,1.5342-0.0088,2.3018
		c0,1.917,0.0088,3.8447,0,5.7637c-0.0107,1.0791-0.4653,1.9277-1.4746,2.3721c-0.9277,0.4043-1.8271,0.2832-2.6143-0.3652
		c-0.5757-0.4736-0.8779-1.1104-0.8779-1.8555c-0.0098-2.7861-0.0806-5.582,0.02-8.3691c0.1108-2.9668,1.5747-5.1973,4.2593-6.4795
		c2.6953-1.2832,5.2998-0.9492,7.7227,0.8076c0.1304,0.0918,0.251,0.1924,0.3833,0.292C53.9186,7.1532,53.9489,7.1532,53.9992,7.163
		z"/>
	<path style="fill:#0042A1;" d="M74.7214,16.621c1.4033,1.9785,3.9668,2.3613,5.915,0.9385
		c0.6055-0.4434,1.2412-0.6846,1.9775-0.5557c1.0098,0.1836,1.6758,0.7793,1.9287,1.7783c0.2725,1.0488-0.0605,1.916-0.8984,2.584
		c-1.1611,0.917-2.4834,1.5137-3.9365,1.7656c-4.8848,0.8477-9.5586-2.3711-10.4473-7.1758
		c-0.918-4.9668,2.2217-9.6807,7.1064-10.6895c5.501-1.1309,10.8506,3.2793,10.7695,8.8711
		c-0.0205,1.4746-1.04,2.4746-2.5635,2.4746c-3.0488,0.0088-6.1064,0-9.1553,0C75.2057,16.621,75.0046,16.621,74.7214,16.621z
		 M81.4841,11.746c-1.8359-2.6035-5.5107-2.0889-6.7021,0C77.0036,11.746,79.2135,11.746,81.4841,11.746z"/>
	<path style="fill:#0042A1;" d="M102.1657,14.3798c-0.0098-4.9551,3.9873-8.9912,8.9023-9.0117
		c4.9453-0.0107,8.9736,4.0156,8.9736,8.9912c0,4.9668-4.0479,9.0459-8.9639,9.0264
		C106.1628,23.3642,102.1764,19.3261,102.1657,14.3798z M111.1188,18.3573c2.1797-0.0098,3.957-1.8164,3.9473-3.998
		c-0.0107-2.1787-1.8271-3.9863-3.9883-3.9766c-2.1807,0.0098-3.9463,1.8174-3.9355,4.0078
		C107.152,16.5907,108.9274,18.3573,111.1188,18.3573z"/>
	<path style="fill:#00449D;" d="M23.0729,6.1239c1.1699-0.2432,2.3423-0.5762,3.5317-0.6973
		c1.5352-0.1504,2.6968,0.9307,2.7871,2.4033c0.0801,1.3818-1.0298,2.5234-2.5439,2.6045
		c-1.9175,0.0996-3.2388,1.4541-3.2495,3.3701c-0.0205,2.3018,0,4.6133-0.0107,6.9141c-0.0098,1.6563-1.1509,2.7461-2.7251,2.625
		c-1.271-0.0918-2.2402-1.1396-2.251-2.4834c-0.0103-3.2891,0-6.5898,0-9.8809c0-0.9883,0-1.9785,0-2.9668
		c0-1.1416,0.4746-1.9883,1.5439-2.4434c1.0498-0.4453,1.9795-0.1807,2.7764,0.6045c0.0498,0.0508,0.1211,0.1016,0.1821,0.1523
		C23.0837,6.245,23.0837,6.1845,23.0729,6.1239z"/>
	<path style="fill:#E63A8F;" d="M33.5905,11.2323c-1.1001-0.1025-1.8872-0.5859-2.2817-1.5557
		c-0.4033-1.0088-0.2412-1.9678,0.5356-2.7334c0.8687-0.8496,1.7656-1.667,2.6948-2.4443c0.7778-0.6572,1.6948-0.7656,2.6152-0.3037
		c0.9282,0.4658,1.4121,1.2314,1.4121,2.293c0,4.7734,0,9.5479-0.0103,14.3232c0,1.4824-1.0596,2.5625-2.4932,2.5527
		c-1.4131-0.0098-2.4727-1.1006-2.4824-2.5947c-0.0112-2.9365,0-5.8652,0-8.8008C33.5905,11.7352,33.5905,11.5136,33.5905,11.2323z"
		/>
	<path style="fill:#0042A1;" d="M90.2253,16.954c0-1.1709-0.0313-2.3418,0.0098-3.5117c0.1504-4.4111,3.7646-7.9854,8.1152-8.0459
		c1.2324-0.0186,2.2207,0.6973,2.5537,1.8369c0.3037,1.0508-0.1113,2.2305-1.0791,2.7881c-0.4053,0.2314-0.9092,0.3613-1.374,0.3906
		c-1.9375,0.1436-3.2393,1.4961-3.249,3.4551c-0.0107,2.3203,0.0098,4.6533-0.0107,6.9736c-0.0098,1.1201-0.6445,1.998-1.6553,2.373
		c-0.9189,0.3418-1.9883,0.0781-2.665-0.668c-0.4531-0.4941-0.665-1.0898-0.665-1.7646
		C90.2165,19.4989,90.2165,18.2274,90.2253,16.954C90.2165,16.954,90.2165,16.954,90.2253,16.954z"/>
	<path style="fill:#FF3793;" d="M93.4958,31.4999c-0.8984,0.8379-1.8574,0.8877-2.8262,0.4541
		c-0.9893-0.4355-1.3223-1.3125-1.3525-2.3223c-0.0098-0.4248,0.0205-0.8477,0.1104-1.2617c0.415-1.9775,2.7461-2.7871,4.1592-1.21
		c0.0205-0.123,0.0303-0.2129,0.0508-0.2939c0.1201-0.4336,0.4326-0.5654,0.8379-0.5146c0.3945,0.0508,0.6152,0.292,0.6152,0.6963
		c0,1.7568,0.041,3.5225-0.0195,5.2793c-0.041,1.3213-0.9082,2.2705-2.2207,2.3926c-0.7373,0.0596-1.5146-0.1113-2.251-0.2734
		c-0.2725-0.0596-0.6055-0.332-0.7168-0.5957c-0.1113-0.252-0.0801-0.7051,0.0908-0.9092c0.1309-0.1592,0.5664-0.0898,0.8584-0.0596
		c0.1309,0.0107,0.2627,0.1816,0.373,0.293c0.4648,0.4336,1.0098,0.4951,1.5752,0.2725c0.5244-0.2012,0.6455-0.6846,0.7158-1.1807
		C93.5173,32.0556,93.4958,31.8319,93.4958,31.4999z M93.5553,29.3085c-0.0498-0.291-0.0898-0.5752-0.1611-0.8369
		c-0.1309-0.5049-0.4551-0.7979-0.9893-0.8281c-0.5439-0.0293-1.0098,0.1211-1.252,0.6563
		c-0.2822,0.6357-0.3223,1.291-0.0498,1.9385c0.2119,0.5146,0.6143,0.7969,1.1914,0.7666c0.5547-0.0303,0.9482-0.3232,1.0996-0.8672
		C93.4655,29.8642,93.5055,29.5819,93.5553,29.3085z"/>
	<path style="fill:#FF3793;" d="M84.1696,29.7431c0,0.626,0.2109,1.0791,0.7363,1.3213c0.5859,0.2627,1.1797,0.2432,1.7363-0.1104
		c0.1504-0.1025,0.2715-0.3018,0.4238-0.333c0.3037-0.0508,0.6865-0.1211,0.9277,0.0205c0.3438,0.1914,0.2734,0.5947,0.0713,0.918
		c-0.0713,0.1221-0.1719,0.2227-0.2832,0.3135c-1.1299,0.959-3.4512,0.8369-4.4805-0.2217c-1.04-1.0605-1.0801-3.1992-0.0615-4.3418
		c0.8779-0.9795,2.0088-1.1494,3.2207-0.8555c1.0703,0.251,1.7559,0.9473,2.0186,2.0273c0.2422,0.9805,0.0205,1.251-0.9795,1.2617
		C86.4089,29.7431,85.3005,29.7431,84.1696,29.7431z M86.946,28.7538c-0.1123-0.8086-0.5859-1.2402-1.3135-1.252
		c-0.7773-0.0107-1.2813,0.4346-1.4121,1.252C85.1383,28.7538,86.0368,28.7538,86.946,28.7538z"/>
	<path style="fill:#FF3793;" d="M100.3688,31.5184c-0.5947,0.666-1.21,1.0195-2.0293,1c-1.1807-0.0303-1.957-0.7061-2.0078-1.8877
		c-0.0508-1.1689-0.0195-2.3408-0.0098-3.5117c0-0.5156,0.3027-0.7676,0.8076-0.7891c0.5234-0.0088,0.8174,0.2539,0.8369,0.8203
		c0.0205,0.9072,0,1.8145,0.0107,2.7236c0.0098,0.8691,0.3428,1.293,1.0088,1.293c0.6865,0,1.2119-0.5459,1.2314-1.3027
		c0.0205-0.8467,0-1.6943,0.0107-2.543c0.0098-0.6982,0.2822-1,0.8574-0.9912c0.5547,0.0107,0.7979,0.293,0.7979,0.9795
		c0.0107,1.4131,0,2.8281,0,4.2393c0,0.4766-0.0703,0.9102-0.666,0.959C100.5915,32.5692,100.4001,32.1747,100.3688,31.5184z"/>
	<path style="fill:#FF3793;" d="M110.2712,32.5184c-1.9277,0.0107-3.0371-1.0898-3.0586-3.0371
		c-0.0195-1.8975,1.1602-3.1299,2.998-3.1514c1.8477-0.0088,3.0488,1.2031,3.0576,3.0908
		C113.2799,31.3778,112.1794,32.5184,110.2712,32.5184z M108.8883,29.4013c0,0.1191-0.0098,0.2402,0,0.3623
		c0.0605,0.918,0.5752,1.5234,1.3125,1.5439c0.7266,0.0195,1.2412-0.5049,1.3828-1.4043c0.0195-0.1602,0.0391-0.3213,0.0391-0.4824
		c0-1.1514-0.5234-1.8594-1.3721-1.8594C109.3835,27.5517,108.8786,28.2284,108.8883,29.4013z"/>
	<path style="fill:#FF3793;" d="M79.0719,32.5897c-0.4854-0.1309-1.0898-0.2324-1.6348-0.4736
		c-0.3232-0.1426-0.6367-0.4561-0.7881-0.7783c-0.1016-0.2109,0.0107-0.6563,0.1914-0.8281
		c0.1426-0.1299,0.5459-0.0488,0.8076,0.0195c0.1719,0.0508,0.2734,0.3037,0.4541,0.3945c0.3545,0.1729,0.7168,0.3525,1.1006,0.4141
		c0.4033,0.0615,0.8887-0.04,0.9287-0.5547c0.04-0.4746-0.4336-0.4951-0.7773-0.5957c-0.585-0.1621-1.1709-0.293-1.7461-0.4951
		c-0.6563-0.2305-1.0195-0.7168-1.0498-1.4131c-0.0313-0.6865,0.2422-1.2422,0.8574-1.5547
		c1.2119-0.6152,2.4229-0.5127,3.5938,0.1221c0.1826,0.1006,0.4043,0.3037,0.4238,0.4844c0.0303,0.2617-0.0303,0.7061-0.2012,0.7871
		c-0.2432,0.1211-0.6973,0.1104-0.9092-0.04c-0.4639-0.3438-0.918-0.626-1.4932-0.4854c-0.2324,0.0508-0.4141,0.3037-0.6172,0.4648
		c0.1729,0.1602,0.3135,0.4033,0.5156,0.4844c0.5352,0.1914,1.1006,0.2715,1.6357,0.4541c1.0293,0.3428,1.4219,0.8184,1.4033,1.6455
		c-0.0098,0.8184-0.5156,1.4346-1.4443,1.7256C79.9606,32.4686,79.5758,32.4979,79.0719,32.5897z"/>
	<path style="fill:#FF3793;" d="M116.6003,32.6093c-0.5459-0.1406-1.1006-0.252-1.6152-0.4443
		c-0.293-0.1094-0.5557-0.333-0.7666-0.5645c-0.3037-0.333-0.3535-0.7578,0.0098-1.0801c0.3535-0.3232,0.7266-0.1807,1.0195,0.1318
		c0.4141,0.4551,0.8779,0.7764,1.5332,0.6953c0.1416-0.0205,0.3135-0.0098,0.4043-0.0918c0.1514-0.1289,0.3643-0.3213,0.3643-0.4922
		c0-0.1533-0.2129-0.3945-0.374-0.4551c-0.5957-0.2031-1.2109-0.3125-1.8076-0.4941c-1.1494-0.3525-1.6748-1.2813-1.2207-2.2725
		c0.1621-0.3516,0.5049-0.7158,0.8477-0.877c1.1504-0.5459,2.3115-0.4346,3.4326,0.1523c0.0996,0.0488,0.2012,0.1406,0.2822,0.2197
		c0.3027,0.3252,0.3633,0.6885,0.0498,1.0313c-0.292,0.3223-0.6758,0.3018-0.9775,0.0303c-0.4355-0.3838-0.8896-0.666-1.4746-0.5371
		c-0.2422,0.0527-0.4443,0.2852-0.6563,0.4248c0.1816,0.1836,0.3232,0.4434,0.5352,0.5254
		c0.4248,0.1719,0.8975,0.2324,1.3418,0.3535c1.1816,0.3223,1.7568,0.9492,1.6963,1.8164c-0.0693,0.9297-0.8789,1.6563-1.998,1.7871
		c-0.2021,0.0195-0.4043,0-0.6055,0C116.6208,32.538,116.611,32.5692,116.6003,32.6093z"/>
	<path style="fill:#FF3793;" d="M104.7096,27.4813c0.2119-0.3213,0.3525-0.5947,0.5557-0.8076
		c0.4941-0.502,1.3223-0.4229,1.6045,0.1328c0.2617,0.5342-0.04,1.0674-0.6455,1.1387c-1.1016,0.1436-1.3223,0.3545-1.3633,1.4756
		c-0.0313,0.7256,0,1.4521-0.0195,2.1797c-0.0107,0.666-0.2637,0.9287-0.8486,0.918c-0.5449-0.0107-0.7871-0.2627-0.7871-0.9072
		c-0.0107-1.3945,0-2.7861,0-4.1787c0-0.7676,0.2119-1.0918,0.7275-1.0918C104.4372,26.33,104.6501,26.6229,104.7096,27.4813z"/>
	<path style="fill:#E63A8F;" d="M23.6882,7.6884v4.2002c0,1.291-1.0586,2.3516-2.3511,2.3516h-0.3838
		c-1.292,0-2.3521-1.0605-2.3521-2.3516V7.6884c0-1.293,1.0601-2.3516,2.3521-2.3516h0.3838
		C22.6296,5.3368,23.6882,6.3954,23.6882,7.6884z"/>
	<path style="fill:#00449D;" d="M23.0319,6.0829c1.1714-0.2412,2.3423-0.5752,3.5332-0.6943
		c1.5347-0.1533,2.6958,0.9277,2.7861,2.3994c0.0806,1.3848-1.0303,2.5254-2.5439,2.6045c-1.918,0.1025-3.2393,1.4541-3.25,3.3711
		c-0.02,2.3018,0,4.6133-0.0098,6.915c-0.0103,1.6553-1.1509,2.7471-2.7261,2.624c-1.2715-0.0889-2.2397-1.1406-2.2505-2.4814
		c-0.0098-3.292-0.0503-4.6436-0.0098-7.9336c0.061-4.5635,4.4409-6.6523,4.5015-6.6123
		C23.0431,6.204,23.0319,6.1434,23.0319,6.0829z"/>
	<g>
		<path style="fill:#E63A8F;" d="M33.5905,11.2323c-1.1001-0.1025-1.8872-0.5859-2.2817-1.5557
			c-0.4033-1.0088-0.2412-1.9678,0.5356-2.7334c0.8687-0.8496,1.7656-1.667,2.6948-2.4443
			c0.7778-0.6572,1.6948-0.7656,2.6152-0.3037c0.9282,0.4658,1.4121,1.2314,1.4121,2.293c0,4.7734,0,9.5479-0.0103,14.3232
			c0,1.4824-1.0596,2.5625-2.4932,2.5527c-1.4131-0.0098-2.4727-1.1006-2.4824-2.5947c-0.0112-2.9365,0-5.8652,0-8.8008
			C33.5905,11.7352,33.5905,11.5136,33.5905,11.2323z"/>
		<path style="fill:#C12B77;" d="M33.6007,9.8798l-0.041-3.2715c0-1.0693,0.1719-1.3623,0.6563-1.8682
			c0.5444-0.5752,1.1406-0.7559,1.3726-0.8057c0.0508-0.0098,0.1021-0.0205,0.1621-0.0205c2.332-0.1221,2.7554,1.7266,2.8057,2.0889
			c0.0103,0.0313,0.0103,0.0693,0.0103,0.1006c0.0205,0.4043-0.0313,0.7461-0.1006,1.0088
			c-0.0913,0.3555-0.2939,0.667-0.5649,0.9199l-1.9893,1.8477c-0.0088,0.0088-0.0293,0.0293-0.04,0.0391l-0.8271,0.6768
			c-0.0107,0.0088-0.0107,0.0088-0.02,0.0195c-0.3228,0.2432-1.1709,0.668-1.4141,0.5342
			C33.5695,11.1102,33.6007,10.2528,33.6007,9.8798z"/>
	</g>
</g>
</svg>
