<?xml version="1.0" encoding="utf-8"?>
<!-- Generator: Adobe Illustrator 24.0.2, SVG Export Plug-In . SVG Version: 6.00 Build 0)  -->
<svg version="1.1" id="Capa_1" xmlns="http://www.w3.org/2000/svg" xmlns:xlink="http://www.w3.org/1999/xlink" x="0px" y="0px"
	 viewBox="0 0 119.97 38.64" style="enable-background:new 0 0 119.97 38.64;" xml:space="preserve">
<g>
	<path style="fill:#0052A0;" d="M60.3816,0c-5.7697,0-10.448,4.6789-10.448,10.4493c0,2.3826,0.797,4.5784,2.1404,6.336
		l8.6858-11.4157l-0.9336,0.0013h-0.9291c-0.9916,0-1.9213,0.0696-2.5901,0.201c-0.4085,0.0792-0.7719,0.2268-1.0663,0.433
		c-0.3473,0.2435-0.7809,0.7609-1.0637,1.2654c-0.0322,0.0599-0.0786,0.1495-0.1411,0.27l-0.5084-0.1114l0.8511-3.2808h10.8803
		L56.615,15.7069c0.5618-0.0496,0.786-0.0606,1.2403-0.0606c0.3511,0,0.884,0.0219,1.5966,0.0645l1.536,0.0915
		c0.5547,0.0322,1.0219,0.0496,1.3756,0.0496c0.7938,0,1.3099-0.0619,1.8208-0.2171c0.3969-0.1211,0.7738-0.3041,1.1185-0.5412
		c0.605-0.4175,1.1971-1.0928,1.5495-1.7673c0.0354-0.0674,0.0908-0.1707,0.1572-0.3105l0.4594,0.1198
		c-0.1475,0.5715-0.2294,0.7905-0.4587,1.3021c-0.4639,1.0386-0.9877,1.7332-1.7093,2.2666
		c-0.7397,0.5489-1.5611,0.8182-2.5302,0.8337l-0.1475,0.0013c-0.719,0-1.2744-0.0606-2.9934-0.3247
		c-1.7499-0.2674-2.6397-0.3583-3.5192-0.3583c-0.5895,0-1.1372,0.0431-1.7022,0.1353c-0.7513,0.1211-1.0444,0.2081-1.7261,0.52
		c1.9097,2.0804,4.6525,3.3858,7.6994,3.3858c5.771,0,10.4493-4.6783,10.4493-10.448C70.8308,4.6789,66.1526,0,60.3816,0"/>
	<path style="fill:#003876;" d="M40.6724,28.1399h-7.9996l-0.9826,2.1706c0.3286-0.1752,0.4587-0.2358,0.7455-0.3505
		c0.4536-0.1817,0.9536-0.3234,1.4381-0.4072c0.4188-0.0722,0.8041-0.1069,1.4336-0.125c0.2803-0.0077,0.5431-0.0116,0.7893-0.0116
		h1.1842l-6.2227,8.8939h8.7966l1.0141-2.3201c-0.3531,0.201-0.4787,0.2681-0.7493,0.3911
		c-0.5103,0.2294-1.0689,0.4014-1.6423,0.5013c-0.4542,0.0812-0.9645,0.125-1.5998,0.143c-0.212,0.0045-0.4832,0.0077-0.8131,0.0077
		h-1.5592L40.6724,28.1399z"/>
	<path style="fill:#003876;" d="M67.11,38.3101c-0.1585-0.1405-0.2139-0.2029-0.3151-0.3595
		c-0.0644-0.1011-0.1173-0.2043-0.1553-0.3106c-0.0883-0.2313-0.1417-0.5721-0.1417-0.8943V36.202v-5.5822l0.0039-0.596
		c0.0045-0.681,0.0219-0.8666,0.1082-1.145c0.0341-0.1076,0.0831-0.2139,0.145-0.317c0.1057-0.1733,0.1772-0.2526,0.3827-0.4226
		h-3.2666c0.2139,0.1836,0.2816,0.2558,0.3788,0.4033c0.0689,0.1031,0.1218,0.2139,0.1572,0.3299
		c0.076,0.2474,0.0999,0.4909,0.1044,1.0953c0.0032,0.3093,0.0039,0.5128,0.0039,0.6121v5.6067v0.4832
		c0,0.3557-0.0619,0.7371-0.1611,0.9819c-0.0412,0.1057-0.0947,0.2049-0.1611,0.2989c-0.0767,0.1108-0.1295,0.1727-0.3099,0.3582
		H67.11V38.3101L67.11,38.3101z"/>
	<path style="fill:#003876;" d="M77.3241,28.232c-0.2506-0.0812-0.3492-0.1069-0.6198-0.1663
		c-0.5844-0.1237-1.1488-0.1804-1.7886-0.1804c-1.0934,0-2.0366,0.1759-2.9006,0.5393c-0.5109,0.2158-0.9819,0.4967-1.3975,0.8305
		c-1.2532,1.009-1.9342,2.4728-1.9342,4.1564c0,1.6359,0.6572,3.0475,1.8582,3.9953c0.9916,0.7822,2.2654,1.1772,3.8007,1.1772
		c0.9555,0,1.8485-0.1424,2.853-0.4562c0.0367-0.011,0.0915-0.029,0.1649-0.0515v-1.8485c-0.2435,0.163-0.3273,0.2146-0.4761,0.3009
		c-0.1952,0.1141-0.404,0.2171-0.6237,0.3106c-0.6127,0.2584-1.172,0.3782-1.7744,0.3782c-1.0534,0-1.9535-0.375-2.6191-1.0953
		c-0.6591-0.7113-1.0154-1.6997-1.0154-2.8175c0-1.0656,0.3299-2.0547,0.9181-2.7447c0.2545-0.2989,0.567-0.5535,0.922-0.7532
		c0.576-0.3222,1.2435-0.4884,1.9671-0.4884c0.6224,0,1.2242,0.1211,1.8266,0.3672c0.3769,0.1533,0.5142,0.2294,0.8382,0.4594
		V28.232H77.3241L77.3241,28.232z"/>
	<path style="fill:#003876;" d="M86.2419,33.6937v2.4806c0,0.5509-0.009,0.7519-0.0445,1.0348
		c-0.02,0.1559-0.0561,0.3047-0.1089,0.4387c-0.0741,0.1913-0.1952,0.3647-0.3666,0.5322c-0.0316,0.0303-0.078,0.0734-0.1411,0.1295
		h3.2505c-0.1366-0.1333-0.1849-0.1907-0.2745-0.3144c-0.0799-0.1128-0.1437-0.2248-0.1888-0.335
		c-0.0992-0.2371-0.1237-0.4182-0.1327-0.9175c-0.0064-0.3009-0.0084-0.4762-0.0084-0.529l0.0084-5.5938v-0.6043
		c0-0.4459,0.0354-0.7912,0.1128-1.0747c0.0348-0.1314,0.0902-0.2584,0.1611-0.375c0.1069-0.1752,0.1836-0.2551,0.4027-0.4252
		h-3.3188c0.1907,0.1579,0.2571,0.2326,0.3705,0.4137c0.0741,0.1179,0.1308,0.2365,0.1688,0.3544
		c0.0786,0.2384,0.1095,0.5354,0.1095,1.067v0.6288v1.844h-4.5604v-1.8569c0-0.5612,0.009-0.9297,0.029-1.2035
		c0.0116-0.1688,0.0387-0.317,0.0805-0.4433c0.0722-0.221,0.2545-0.5232,0.4233-0.6965c0.0238-0.0251,0.0612-0.0612,0.1121-0.1076
		h-3.2582c0.1939,0.1997,0.2455,0.2597,0.3337,0.3891c0.0722,0.1044,0.1295,0.2216,0.174,0.3473
		c0.0902,0.2558,0.1044,0.3956,0.1121,1.074l0.0084,0.6456v5.5661c0,0.5663-0.009,0.8138-0.0399,1.0705
		c-0.0161,0.1321-0.0503,0.2683-0.1005,0.403c-0.0838,0.2204-0.2036,0.3956-0.3904,0.5721
		c-0.0264,0.0219-0.0625,0.0567-0.1134,0.1011h3.2176c-0.1392-0.1463-0.1881-0.2068-0.2693-0.3357
		c-0.0612-0.0967-0.1153-0.2036-0.1611-0.3173c-0.1063-0.2667-0.1385-0.4604-0.1488-0.8901
		c-0.0058-0.2165-0.0084-0.4191-0.0084-0.6086v-2.4645h4.5597V33.6937z"/>
	<path style="fill:#003876;" d="M42.0577,28.1399c0.2017,0.163,0.2706,0.2404,0.3705,0.4104
		c0.0651,0.1108,0.114,0.2294,0.145,0.3537c0.0374,0.154,0.0606,0.3099,0.0644,0.4678c0.0032,0.1114,0.0064,0.3234,0.0084,0.6321
		l0.0039,0.5882v2.9077c0,1.027,0.0077,1.3801,0.0399,1.7924c0.058,0.7287,0.288,1.3369,0.7132,1.8698
		c0.4285,0.5374,1.0122,0.9433,1.7151,1.1907c0.547,0.1926,1.161,0.2873,1.8549,0.2873c0.7641,0,1.5122-0.1147,2.0605-0.3196
		c0.576-0.2126,1.1301-0.5838,1.5141-1.0141c0.4691-0.5251,0.7351-1.1611,0.8221-1.9703c0.0515-0.4832,0.0683-0.9175,0.0683-1.8195
		v-2.9245l-0.0039-0.5766v-0.0806c0-0.5128,0.0412-0.835,0.0921-1.0083c0.1057-0.3582,0.2886-0.5696,0.4555-0.6997
		c0.0644-0.049,0.0844-0.0631,0.116-0.087h-3.0115c0.1231,0.1836,0.163,0.2648,0.221,0.4426
		c0.0387,0.1198,0.067,0.2474,0.085,0.3827c0.0464,0.3615,0.0644,0.8202,0.0644,1.6881v3.1564c0,0.8782-0.0225,1.3182-0.0844,1.7242
		c-0.0425,0.2738-0.1314,0.5251-0.2622,0.7409c-0.2571,0.4272-0.7049,0.7403-1.2525,0.8743
		c-0.2191,0.0554-0.462,0.0812-0.7216,0.0812c-0.5251,0-0.978-0.1076-1.3807-0.3312c-0.2571-0.1411-0.4632-0.3208-0.6044-0.527
		c-0.2796-0.4072-0.3608-0.8176-0.3705-1.8621l-0.0122-1.2789v-2.5778c0-0.8673,0.018-1.3382,0.0638-1.6881
		c0.0354-0.2681,0.1173-0.5058,0.2506-0.7326c0.0116-0.0212,0.0309-0.0522,0.0554-0.0921h-3.0804V28.1399L42.0577,28.1399z"/>
	<path style="fill:#003876;" d="M56.3882,36.2187c0,0.1868,0.0013,0.3569,0.0039,0.5116c0.0077,0.4703,0.0425,0.7145,0.1327,0.9381
		c0.0438,0.1069,0.1018,0.2126,0.174,0.3099c0.0902,0.1237,0.1321,0.174,0.2816,0.3318h-3.2337
		c0.1881-0.174,0.2461-0.2345,0.3376-0.3557c0.0741-0.0992,0.134-0.2068,0.1772-0.3222c0.0838-0.2236,0.1173-0.5006,0.1173-0.9819
		v-0.4317V30.572v-0.5966c0-0.54-0.0296-0.8537-0.1005-1.0831c-0.0406-0.1282-0.0999-0.2532-0.1772-0.3711
		c-0.0966-0.1456-0.1617-0.2178-0.3428-0.3807h2.6262c0.3241,0,0.6385,0.0026,0.9426,0.0103
		c0.8099,0.0219,1.2841,0.0709,1.7396,0.1778c0.6495,0.1521,1.2338,0.4755,1.652,0.9149c0.4549,0.4755,0.6888,1.0437,0.6888,1.6687
		c0,0.2635-0.0419,0.527-0.1263,0.7835c-0.1482,0.4601-0.3995,0.8234-0.8002,1.1591c-0.3544,0.2983-0.7429,0.5225-1.2532,0.7261
		c-0.1791,0.0709-0.2551,0.0973-0.451,0.1572l1.5792,1.8569c0.192,0.2255,0.4388,0.5019,0.7409,0.8286
		c0.4761,0.5167,0.7931,0.8427,1.152,1.1804c0.1546,0.1469,0.3002,0.2803,0.4388,0.3995c0.1314,0.1134,0.1991,0.1701,0.3711,0.3067
		h-0.7931h-0.4839c-0.1888,0-0.3647-0.0045-0.5277-0.009c-0.4413-0.0142-0.7178-0.0799-1.0116-0.2384
		c-0.3402-0.1836-0.6868-0.4575-1.0515-0.8318c-0.1121-0.1179-0.2771-0.2996-0.4948-0.5483
		c-0.192-0.221-0.3325-0.3853-0.4227-0.4923l-1.8846-2.2596L56.3882,36.2187L56.3882,36.2187z M56.5531,33.079
		c0.145,0,0.3234-0.0168,0.5315-0.0464c0.547-0.0792,0.9175-0.1991,1.2809-0.4149c0.1894-0.1114,0.3499-0.2404,0.4748-0.3827
		c0.2609-0.2931,0.3943-0.6836,0.3943-1.1455c0-0.5303-0.1772-0.958-0.5225-1.2506c-0.1978-0.1694-0.433-0.2931-0.6888-0.3666
		c-0.3853-0.1102-0.8698-0.1707-1.3704-0.1707c-0.0831,0-0.1372,0.0007-0.2648,0.0051v3.7666
		C56.4674,33.0777,56.5016,33.079,56.5531,33.079"/>
</g>
</svg>
